RMSD,PDB-ID,occ,seq,motif
0.6992,4FQO,intra,QDS,A-Q71 A-D69 A-S62
0.7428,3UHM,intra,HDS,A-H237 A-D241 A-S106
0.7858,1GXM,intra,QDS,A-Q435 A-D445 A-S426
0.7912,3C75,intra,QDS,J-Q329 J-D331 J-S276
0.7917,3C75,intra,QDS,H-Q329 H-D331 H-S276
0.7927,1GXM,intra,QDS,B-Q435 B-D445 B-S426
0.8152,3LW5,intra,HDS,B-H34 B-D36 B-S9
0.8357,1TM7,intra,HDS,E-H64 E-D32 E-S221
0.8696,1AVF,intra,QDS,J-Q116 J-D118 J-S52
0.8869,2AFR,intra,QDS,A-Q80 A-D78 A-S203
0.8934,1AVF,intra,QDS,A-Q116 A-D118 A-S52
0.9077,2F6K,intra,HDS,B-H7 B-D266 B-S55
0.9147,3UHM,intra,QDS,A-Q171 A-D232 A-S173
0.9200,2F6K,intra,HDS,A-H7 A-D266 A-S55
0.9296,1WLF,intra,QDS,A-Q133 A-D26 A-S59
0.9347,3C75,intra,QDS,H-Q329 H-D331 H-S273
0.9353,3W6B,inter,QDS,D-Q189 D-D188 B-S184
0.9355,1Q8M,inter,QDS,C-Q117 D-D60 C-S51
0.9362,1IR2,inter,QDS,H-Q156 H-D160 G-S181
0.9367,1IR2,inter,QDS,Z-Q156 Z-D160 Y-S181
0.9378,1Q8M,inter,QDS,B-Q117 A-D60 B-S51
0.9386,1IR2,inter,QDS,U-Q156 U-D160 V-S181
0.9391,2F6K,intra,HDS,B-H7 B-D5 B-S55
0.9400,2F6K,intra,HDS,A-H7 A-D5 A-S55
0.9403,3C75,intra,QDS,J-Q329 J-D331 J-S273
0.9404,1IR2,inter,QDS,Y-Q156 Y-D160 X-S181
0.9408,1IR2,inter,QDS,D-Q156 D-D160 A-S181
0.9435,1IR2,inter,QDS,A-Q156 A-D160 B-S181
0.9452,1IR2,inter,QDS,V-Q156 V-D160 S-S181
0.9478,1UWC,intra,QDS,A-Q75 A-D77 A-S70
0.9505,1TM7,intra,QDS,E-Q185 E-D181 E-S188
0.9515,1Q8M,inter,QDS,D-Q117 C-D60 D-S51
0.9537,1IR2,inter,QDS,S-Q156 S-D160 T-S181
0.9547,1IR2,inter,QDS,W-Q156 W-D160 Z-S181
0.9562,1IR2,inter,QDS,T-Q156 T-D160 U-S181
0.9624,1IR2,inter,QDS,C-Q156 C-D160 D-S181
0.9625,3KOT,intra,QDS,A-Q158 A-D156 A-S282
0.9629,1IR2,inter,QDS,F-Q156 F-D160 E-S181
0.9630,3W6B,inter,QDS,B-Q189 B-D188 D-S184
0.9638,1IR2,inter,QDS,E-Q156 E-D160 H-S181
0.9640,1IR2,inter,QDS,G-Q156 G-D160 F-S181
0.9655,1UEA,intra,HDS,C-H151 C-D153 C-S145
0.9660,1UWC,intra,QDS,B-Q75 B-D77 B-S70
0.9680,1IR2,inter,QDS,X-Q156 X-D160 W-S181
0.9702,1Q8M,inter,QDS,A-Q117 B-D60 A-S51
0.9710,1IR2,inter,QDS,B-Q156 B-D160 C-S181
0.9892,3LW5,intra,QDS,A-Q644 A-D479 A-S646
1.0020,1G7M,intra,QDS,A-Q79 A-D82 A-S77
1.0046,1JTD,intra,QDS,B-Q172 B-D206 B-S169
1.0064,2AFR,intra,QDS,A-Q67 A-D63 A-S217
1.0090,3C75,intra,QDS,H-Q379 H-D423 H-S426
1.0129,3C75,intra,QDS,J-Q379 J-D423 J-S426
1.0142,2R5W,intra,QDS,B-Q85 B-D89 B-S121
1.0203,2HY7,intra,QDS,A-Q310 A-D312 A-S305
1.0328,4NM6,intra,QDS,A-Q1435 A-D1425 A-S1431
1.0388,1AK0,intra,HDS,A-H126 A-D127 A-S86
1.0394,3LW5,inter,QDS,A-Q591 A-D596 B-S666
1.0509,2XSF,intra,QDS,A-Q94 A-D92 A-S99
1.0558,3ZRW,intra,QDS,B-Q329 B-D331 B-S325
1.0601,1UEA,intra,HDS,A-H151 A-D153 A-S145
1.0617,1AK0,intra,HDS,A-H116 A-D120 A-S42
1.0626,2F6K,intra,HDS,B-H7 B-D239 B-S265
1.0696,2F6K,intra,HDS,A-H7 A-D239 A-S265
1.0700,2XMR,intra,QDS,B-Q268 B-D265 B-S270
1.0797,4FQO,intra,QDS,A-Q50 A-D54 A-S30
1.0860,1GXM,intra,QDS,B-Q435 B-D389 B-S385
1.0879,1FP3,intra,QDS,A-Q244 A-D297 A-S283
1.0895,3L27,inter,QDS,C-Q288 C-D289 B-S253
1.0945,2XMR,intra,QDS,A-Q268 A-D265 A-S270
1.0980,3UHM,intra,HDS,A-H264 A-D241 A-S262
1.0986,2XMR,intra,QDS,C-Q268 C-D265 C-S270
1.1100,1URX,intra,QDS,A-Q256 A-D258 A-S78
1.1104,1GF5,intra,QDS,A-Q58 A-D53 A-S36
1.1109,2R5W,intra,QDS,A-Q85 A-D89 A-S121
1.1111,2QEU,intra,HDS,B-H19 B-D23 B-S46
1.1152,1G7M,intra,QDS,C-Q57 C-D52 C-S36
1.1176,1TM7,intra,QDS,E-Q59 E-D60 E-S37
1.1200,1TM7,intra,QDS,E-Q59 E-D60 E-S38
1.1244,1UWC,intra,HDS,B-H247 B-D194 B-S133
1.1248,3L27,inter,HDS,A-H260 A-D257 B-S310
1.1271,3L27,inter,HDS,B-H260 B-D257 D-S310
1.1281,2AFR,intra,QDS,A-Q80 A-D78 A-S103
1.1282,2QEU,intra,HDS,A-H19 A-D23 A-S46
1.1295,3KOT,intra,QDS,A-Q178 A-D182 A-S175
1.1309,1Q8M,intra,HDS,D-H91 D-D89 D-S50
1.1330,1UWC,intra,HDS,A-H247 A-D194 A-S133
1.1360,3AR4,intra,QDS,A-Q360 A-D601 A-S387
1.1428,3UHM,intra,HDS,A-H264 A-D245 A-S262
1.1488,3LW5,inter,HDS,A-H438 A-D440 D-S86
1.1525,1UWC,intra,QDS,B-Q45 B-D47 B-S106
1.1531,2QEU,intra,HDS,C-H19 C-D23 C-S46
1.1551,1UWC,intra,QDS,A-Q45 A-D47 A-S106
1.1662,2VW8,intra,HDS,A-H163 A-D161 A-S93
1.1669,4FTX,intra,QDS,B-Q90 B-D83 B-S94
1.1671,1URX,intra,QDS,A-Q21 A-D22 A-S45
1.1686,2DR3,intra,HDS,C-H222 C-D236 C-S218
1.1698,1GXM,inter,QDS,A-Q620 A-D617 B-S613
1.1700,4NBO,intra,HDS,B-H128 B-D124 B-S207
1.1731,3C75,intra,QDS,J-Q329 J-D423 J-S276
1.1732,4MI2,inter,QDS,C-Q240 A-D149 C-S238
1.1764,4F3Q,intra,QDS,A-Q216 A-D212 A-S93
1.1781,3LW5,intra,QDS,L-Q177 L-D180 L-S152
1.1784,1Q8M,intra,HDS,C-H91 C-D89 C-S50
1.1794,3C75,intra,QDS,H-Q329 H-D423 H-S276
1.1890,4MI2,inter,QDS,B-Q240 C-D149 B-S238
1.1890,4EPS,intra,QDS,A-Q147 A-D149 A-S232
1.1894,4FTX,intra,QDS,A-Q90 A-D83 A-S94
1.1901,1GXM,intra,QDS,B-Q435 B-D445 B-S385
1.1901,2X3L,inter,QDS,A-Q117 A-D114 B-S116
1.1920,1Q8M,intra,HDS,A-H91 A-D89 A-S50
1.1922,2X3L,inter,QDS,B-Q117 B-D114 A-S116
1.1942,1G7M,inter,QDS,C-Q121 C-D119 A-S93
1.2007,2VW8,intra,QDS,A-Q21 A-D19 A-S5
1.2037,4MI2,inter,QDS,A-Q240 B-D149 A-S238
1.2049,1Q8M,intra,HDS,B-H91 B-D89 B-S50
1.2055,4EPS,intra,QDS,A-Q253 A-D266 A-S250
1.2058,2XMR,intra,HDS,B-H55 B-D87 B-S63
1.2060,3L27,inter,QDS,B-Q288 B-D289 C-S253
1.2079,1GXM,intra,QDS,A-Q435 A-D389 A-S385
1.2082,1GXM,intra,QDS,A-Q435 A-D445 A-S385
1.2087,4ASM,intra,QDS,B-Q154 B-D151 B-S311
1.2089,1GF5,intra,QDS,A-Q86 A-D91 A-S82
1.2095,2DR3,intra,HDS,D-H222 D-D236 D-S218
1.2099,2DR3,intra,HDS,A-H222 A-D236 A-S218
1.2102,2XMR,intra,HDS,A-H55 A-D87 A-S63
1.2115,3W6B,intra,QDS,A-Q160 A-D156 A-S142
1.2126,3C75,intra,HDS,J-H327 J-D331 J-S273
1.2153,3C75,intra,HDS,H-H327 H-D331 H-S273
1.2185,2XMR,intra,QDS,A-Q109 A-D108 A-S222
1.2188,2DR3,intra,HDS,F-H222 F-D236 F-S218
1.2236,3C75,inter,QDS,J-Q100 J-D116 L-S83
1.2244,2XMR,intra,HDS,C-H55 C-D87 C-S63
1.2246,4NBO,intra,HDS,A-H128 A-D124 A-S207
1.2272,1F9I,intra,QDS,A-Q32 A-D34 A-S114
1.2286,2XMR,intra,QDS,C-Q250 C-D249 C-S189
1.2325,4EPS,intra,QDS,A-Q178 A-D43 A-S161
1.2327,2DR3,intra,HDS,B-H222 B-D236 B-S218
1.2329,3UHM,intra,HDS,A-H264 A-D245 A-S63
1.2337,3QSI,intra,HDS,B-H88 B-D85 B-S90
1.2347,3QSI,intra,HDS,F-H88 F-D85 F-S90
1.2352,2XMR,intra,QDS,C-Q109 C-D108 C-S222
1.2355,3QSI,intra,HDS,D-H88 D-D85 D-S90
1.2357,2DR3,intra,HDS,E-H222 E-D236 E-S218
1.2358,3QSI,intra,HDS,J-H88 J-D85 J-S90
1.2381,3UHM,intra,HDS,A-H78 A-D241 A-S63
1.2399,3QSI,intra,HDS,H-H88 H-D85 H-S90
1.2401,3C75,intra,QDS,L-Q21 L-D37 L-S124
1.2414,3C75,intra,QDS,M-Q21 M-D37 M-S124
1.2417,3LW5,inter,HDS,A-H438 A-D440 L-S68
1.2426,2XMR,intra,QDS,B-Q250 B-D249 B-S189
1.2440,2VW8,intra,HDS,A-H163 A-D161 A-S204
1.2446,3LW5,intra,QDS,A-Q392 A-D388 A-S147
1.2449,1UWC,intra,HDS,A-H247 A-D245 A-S255
1.2458,1G7M,intra,HDS,B-H86 B-D89 B-S84
1.2506,2X3L,intra,QDS,A-Q207 A-D181 A-S196
1.2507,3C75,inter,QDS,H-Q100 H-D116 M-S83
1.2508,3MX7,intra,HDS,A-H23 A-D3 A-S27
1.2546,1UWC,intra,HDS,B-H247 B-D245 B-S255
1.2547,1GJW,intra,QDS,A-Q374 A-D380 A-S66
1.2571,1FP3,intra,QDS,B-Q244 B-D297 B-S283
1.2572,1BOB,intra,QDS,A-Q271 A-D269 A-S233
1.2584,2XMR,intra,QDS,A-Q250 A-D249 A-S189
1.2585,3T47,intra,QDS,B-Q40 B-D43 B-S76
1.2600,2VW8,intra,HDS,A-H159 A-D178 A-S204
1.2629,2X3L,intra,QDS,B-Q207 B-D181 B-S196
1.2662,3L0G,intra,QDS,A-Q114 A-D117 A-S110
1.2671,3W6B,intra,QDS,B-Q160 B-D156 B-S142
1.2689,4FQO,intra,HDS,A-H25 A-D23 A-S18
1.2704,3W6B,intra,QDS,C-Q160 C-D156 C-S142
1.2714,2ZKO,intra,QDS,B-Q10 B-D12 B-S7
1.2717,2X3L,intra,QDS,B-Q118 B-D98 B-S93
1.2751,2XMR,intra,QDS,B-Q109 B-D108 B-S222
1.2757,3L0G,intra,QDS,D-Q114 D-D117 D-S110
1.2759,3L0G,intra,QDS,C-Q114 C-D117 C-S110
1.2766,4NM6,intra,QDS,A-Q1852 A-D1856 A-S1449
1.2801,4NM6,intra,HDS,A-H1386 A-D1384 A-S1290
1.2813,2ZKO,intra,QDS,A-Q10 A-D12 A-S7
1.2819,3L0G,intra,QDS,B-Q114 B-D117 B-S110
1.2831,3W6B,intra,QDS,D-Q160 D-D156 D-S142
1.2862,1IR2,inter,QDS,M-Q113 M-D111 D-S76
1.2867,1TM7,intra,QDS,E-Q59 E-D60 E-S49
1.2883,3QSI,intra,HDS,G-H88 G-D85 G-S90
1.2895,1UWC,intra,QDS,B-Q108 B-D109 B-S106
1.2898,1Q8M,intra,HDS,C-H91 C-D89 C-S77
1.2898,3QSI,intra,HDS,C-H88 C-D85 C-S90
1.2906,3LW5,intra,QDS,F-Q154 F-D78 F-S151
1.2913,2X3L,intra,HDS,B-H53 B-D51 B-S244
1.2917,1IR2,inter,QDS,8-Q115 8-D111 U-S76
1.2919,3QSI,intra,HDS,I-H88 I-D85 I-S90
1.2925,3QSI,intra,HDS,E-H88 E-D85 E-S90
1.2935,3QSI,intra,HDS,A-H88 A-D85 A-S90
1.2944,1GXM,intra,QDS,B-Q435 B-D389 B-S444
1.2961,1IR2,inter,QDS,N-Q115 N-D111 A-S76
1.2965,3LW5,intra,QDS,B-Q608 B-D622 B-S613
1.2969,1IR2,inter,QDS,2-Q115 2-D111 Y-S76
1.2971,1IR2,inter,QDS,7-Q115 7-D111 T-S76
1.2971,1IR2,inter,QDS,8-Q113 8-D111 U-S76
1.2986,1UWC,intra,QDS,A-Q108 A-D109 A-S106
1.2988,4I1X,intra,HDS,A-H219 A-D246 A-S209
1.2988,3W6B,inter,HDS,B-H183 B-D188 D-S184
1.2992,1IR2,inter,QDS,1-Q113 1-D111 X-S76
1.2998,3L0G,inter,QDS,D-Q103 D-D268 B-S263
1.2999,1IR2,inter,QDS,4-Q115 4-D111 W-S76
1.3004,1G7M,intra,QDS,A-Q79 A-D82 A-S14
1.3009,1IR2,inter,QDS,O-Q115 O-D111 B-S76
1.3017,2VW8,intra,HDS,A-H157 A-D197 A-S160
1.3028,1IR2,inter,QDS,1-Q115 1-D111 X-S76
1.3030,1IR2,inter,QDS,4-Q113 4-D111 W-S76
1.3035,1IR2,inter,QDS,K-Q113 K-D111 H-S76
1.3035,1IR2,inter,QDS,K-Q115 K-D111 H-S76
1.3036,1IR2,inter,QDS,J-Q115 J-D111 G-S76
1.3049,1GXM,intra,QDS,A-Q435 A-D389 A-S444
1.3053,3C75,intra,QDS,J-Q379 J-D425 J-S330
1.3056,1IR2,inter,QDS,M-Q115 M-D111 D-S76
1.3074,1IR2,inter,QDS,5-Q115 5-D111 V-S76
1.3074,2XMR,intra,HDS,A-H55 A-D56 A-S63
1.3075,1IR2,inter,QDS,6-Q115 6-D111 S-S76
1.3075,1SU0,intra,HDS,B-H23 B-D77 B-S72
1.3077,1SU0,intra,HDS,B-H22 B-D77 B-S72
1.3089,1IR2,inter,QDS,P-Q113 P-D111 C-S76
1.3092,3C75,intra,QDS,H-Q379 H-D425 H-S330
1.3095,1IR2,inter,QDS,J-Q113 J-D111 G-S76
1.3103,1IR2,inter,QDS,I-Q115 I-D111 F-S76
1.3103,1IR2,inter,QDS,3-Q115 3-D111 Z-S76
1.3107,1IR2,inter,QDS,3-Q113 3-D111 Z-S76
1.3111,3LW5,intra,QDS,A-Q621 A-D623 A-S617
1.3115,3W6B,inter,HDS,D-H183 D-D188 B-S184
1.3121,4ASM,intra,HDS,B-H182 B-D157 B-S201
1.3126,2R5W,intra,QDS,B-Q88 B-D89 B-S121
1.3132,1IR2,inter,QDS,L-Q115 L-D111 E-S76
1.3137,2XMR,intra,HDS,B-H55 B-D56 B-S63
1.3141,3C75,intra,QDS,J-Q417 J-D91 J-S389
1.3142,4FTX,intra,HDS,A-H91 A-D83 A-S94
1.3143,1IR2,inter,QDS,P-Q115 P-D111 C-S76
1.3153,3L27,intra,QDS,A-Q331 A-D332 A-S299
1.3161,3C75,intra,QDS,H-Q417 H-D91 H-S389
1.3165,1URX,intra,QDS,A-Q183 A-D181 A-S147
1.3171,1IR2,inter,QDS,5-Q113 5-D111 V-S76
1.3178,1IR2,inter,QDS,7-Q113 7-D111 T-S76
1.3179,3L0G,inter,QDS,C-Q103 C-D268 A-S263
1.3185,1IR2,inter,QDS,6-Q113 6-D111 S-S76
1.3191,2XMR,intra,HDS,C-H55 C-D56 C-S63
1.3197,1JTD,intra,QDS,B-Q250 B-D245 B-S232
1.3198,4NBO,intra,HDS,A-H180 A-D177 A-S182
1.3203,2HY7,intra,HDS,A-H208 A-D207 A-S364
1.3211,2VW8,intra,HDS,A-H157 A-D161 A-S93
1.3224,1IR2,inter,QDS,N-Q113 N-D111 A-S76
1.3231,2X3L,intra,QDS,A-Q118 A-D98 A-S93
1.3235,4FTX,intra,HDS,B-H91 B-D83 B-S94
1.3248,2X3L,intra,HDS,A-H53 A-D51 A-S244
1.3271,1IR2,inter,QDS,L-Q113 L-D111 E-S76
1.3285,1IR2,inter,QDS,2-Q113 2-D111 Y-S76
1.3294,1IR2,inter,QDS,O-Q113 O-D111 B-S76
1.3315,1WLF,intra,HDS,A-H129 A-D148 A-S125
1.3323,4EPS,intra,QDS,A-Q253 A-D223 A-S250
1.3356,2X3L,intra,HDS,A-H106 A-D181 A-S108
1.3375,1TM7,intra,QDS,E-Q59 E-D36 E-S33
1.3376,1CNT,intra,HDS,1-H174 1-D175 1-S65
1.3381,1JTD,intra,QDS,B-Q133 B-D167 B-S154
1.3401,3DTG,intra,QDS,B-Q337 B-D335 B-S322
1.3408,1IR2,inter,QDS,I-Q113 I-D111 F-S76
1.3439,4NM6,intra,HDS,A-H1150 A-D1343 A-S1392
1.3442,1Q8M,intra,QDS,A-Q52 A-D89 A-S50
1.3448,3QSI,inter,HDS,D-H75 D-D73 J-S90
1.3448,3L0G,inter,QDS,B-Q103 B-D268 D-S263
1.3458,1GXM,inter,QDS,B-Q620 B-D617 A-S613
1.3502,3W6B,intra,QDS,D-Q160 D-D156 D-S151
1.3508,4NBO,intra,HDS,B-H180 B-D177 B-S182
1.3510,3L0G,inter,QDS,A-Q103 A-D268 C-S263
1.3530,3AR4,intra,HDS,A-H190 A-D579 A-S582
1.3550,3V67,intra,HDS,A-H87 A-D88 A-S109
1.3550,3V67,intra,HDS,B-H87 B-D88 B-S109
1.3557,3LW5,intra,QDS,A-Q474 A-D475 A-S478
1.3569,1UEA,intra,HDS,C-H179 C-D181 C-S145
1.3588,3DTG,intra,QDS,A-Q337 A-D335 A-S322
1.3602,3L27,inter,HDS,B-H260 B-D218 D-S310
1.3610,4ASM,intra,HDS,B-H179 B-D157 B-S201
1.3613,2HY7,intra,QDS,A-Q39 A-D38 A-S364
1.3625,3LW5,intra,HDS,A-H62 A-D60 A-S66
1.3627,3W6B,intra,QDS,B-Q160 B-D156 B-S151
1.3686,2VW8,intra,QDS,A-Q61 A-D58 A-S33
1.3706,2ZE6,intra,QDS,A-Q218 A-D221 A-S99
1.3710,3UHM,intra,HDS,A-H264 A-D241 A-S63
1.3714,1CNT,intra,HDS,3-H174 3-D175 3-S65
1.3714,3W6B,intra,QDS,A-Q160 A-D156 A-S151
1.3717,3LW5,intra,HDS,B-H34 B-D30 B-S9
1.3751,1GJW,intra,HDS,A-H99 A-D109 A-S102
1.3752,3C75,inter,QDS,J-Q101 J-D116 L-S83
1.3753,3L27,inter,HDS,A-H260 A-D218 B-S310
1.3754,2X3L,intra,HDS,B-H106 B-D181 B-S108
1.3755,4NBO,inter,QDS,A-Q120 A-D124 B-S210
1.3756,1AK0,intra,HDS,A-H107 A-D99 A-S103
1.3767,1AK0,intra,HDS,A-H126 A-D120 A-S86
1.3769,3W6B,intra,QDS,A-Q187 A-D188 A-S194
1.3778,3W6B,intra,QDS,B-Q187 B-D188 B-S194
1.3795,3W6B,intra,QDS,C-Q187 C-D188 C-S194
1.3797,3W6B,intra,QDS,C-Q160 C-D156 C-S151
1.3802,4FQO,intra,HDS,A-H25 A-D69 A-S18
1.3845,3W6B,intra,HDS,A-H213 A-D218 A-S209
1.3884,1JTD,intra,QDS,B-Q211 B-D245 B-S232
1.3893,2ZE6,intra,QDS,A-Q36 A-D33 A-S45
1.3894,1JTD,intra,QDS,A-Q39 A-D38 A-S266
1.3895,1URX,intra,HDS,A-H172 A-D181 A-S170
1.3904,2X3L,inter,HDS,B-H26 A-D42 B-S253
1.3907,2F6K,intra,HDS,B-H7 B-D266 B-S57
1.3908,1JTD,intra,QDS,B-Q250 B-D245 B-S284
1.3952,1UWC,intra,QDS,A-Q110 A-D109 A-S106
1.3976,1WLF,intra,QDS,A-Q91 A-D90 A-S51
1.3978,3L0G,intra,QDS,D-Q103 D-D268 D-S110
1.3978,2VW8,intra,HDS,A-H221 A-D178 A-S273
1.3989,2X3L,intra,HDS,B-H54 B-D51 B-S239
1.3991,3C75,inter,QDS,H-Q101 H-D116 M-S83
1.3992,2X3L,intra,HDS,A-H54 A-D51 A-S239
1.4002,3L27,intra,QDS,B-Q331 B-D332 B-S299
1.4008,1UWC,intra,QDS,B-Q110 B-D109 B-S106
1.4032,1URX,intra,QDS,A-Q183 A-D233 A-S147
1.4036,3L27,inter,QDS,D-Q308 B-D218 D-S310
1.4043,3W6B,intra,QDS,D-Q187 D-D188 D-S194
1.4051,1Q8M,intra,QDS,C-Q52 C-D89 C-S50
1.4069,2VW8,intra,HDS,A-H159 A-D197 A-S204
1.4071,2F6K,intra,HDS,A-H7 A-D266 A-S57
1.4077,3AR4,intra,QDS,A-Q966 A-D963 A-S902
1.4088,2R5W,intra,QDS,A-Q88 A-D89 A-S121
1.4090,1Y02,intra,QDS,A-Q64 A-D40 A-S50
1.4092,2VW8,intra,HDS,A-H157 A-D197 A-S204
1.4096,4NM6,intra,QDS,A-Q1274 A-D1376 A-S1284
1.4097,4I1X,intra,HDS,B-H219 B-D246 B-S209
1.4111,2ICT,intra,QDS,A-Q14 A-D11 A-S16
1.4127,2DR3,intra,HDS,F-H17 F-D13 F-S218
1.4127,1GJW,intra,QDS,A-Q67 A-D64 A-S70
1.4128,2X3L,inter,HDS,A-H26 B-D42 A-S20
1.4129,2EN3,intra,HDS,A-H35 A-D39 A-S44
1.4132,2F6K,intra,QDS,A-Q294 A-D299 A-S2
1.4141,4EPS,intra,QDS,A-Q66 A-D68 A-S95
1.4150,2DR3,intra,HDS,A-H17 A-D13 A-S218
1.4157,1JTD,intra,QDS,A-Q205 A-D209 A-S203
1.4162,1JTD,intra,QDS,B-Q133 B-D131 B-S154
1.4176,2DR3,intra,HDS,D-H17 D-D13 D-S218
1.4177,4IX1,intra,HDS,H-H212 H-D215 H-S230
1.4180,3L0G,intra,HDS,D-H166 D-D164 D-S172
1.4185,2DR3,intra,HDS,C-H17 C-D13 C-S218
1.4187,1Q8M,intra,HDS,A-H91 A-D89 A-S77
1.4201,4IX1,intra,HDS,E-H212 E-D215 E-S230
1.4219,2X3L,intra,QDS,B-Q117 B-D114 B-S93
1.4221,3AR4,intra,QDS,A-Q612 A-D616 A-S610
1.4228,3L0G,intra,QDS,C-Q103 C-D268 C-S110
1.4236,2X3L,inter,HDS,B-H26 A-D42 B-S20
1.4249,4IX1,intra,HDS,C-H212 C-D215 C-S230
1.4252,3L0G,intra,HDS,B-H166 B-D164 B-S172
1.4266,3W6B,intra,HDS,D-H213 D-D218 D-S209
1.4266,1G7M,intra,QDS,C-Q121 C-D119 C-S24
1.4273,1UWC,intra,QDS,B-Q166 B-D93 B-S170
1.4284,4IX1,intra,HDS,A-H212 A-D215 A-S230
1.4285,4EPS,intra,HDS,A-H181 A-D157 A-S184
1.4289,2DR3,intra,HDS,E-H17 E-D13 E-S218
1.4290,4EPS,intra,QDS,A-Q66 A-D68 A-S94
1.4298,3L27,intra,QDS,C-Q331 C-D332 C-S299
1.4299,4IX1,intra,HDS,D-H212 D-D215 D-S230
1.4304,1Q8M,intra,QDS,D-Q52 D-D89 D-S50
1.4305,3L0G,intra,HDS,D-H166 D-D164 D-S169
1.4314,4IX1,intra,HDS,B-H212 B-D215 B-S230
1.4322,4IX1,intra,HDS,F-H212 F-D215 F-S230
1.4323,3ZRW,intra,QDS,B-Q329 B-D332 B-S325
1.4324,3UHM,intra,HDS,A-H237 A-D241 A-S186
1.4325,2DR3,intra,HDS,F-H108 F-D109 F-S99
1.4325,4F3Q,intra,QDS,A-Q216 A-D121 A-S93
1.4328,2AAO,intra,HDS,A-H100 A-D99 A-S22
1.4332,1GD0,intra,HDS,C-H62 C-D100 C-S60
1.4332,2VW8,intra,HDS,A-H159 A-D196 A-S204
1.4334,2X3L,inter,HDS,A-H26 B-D42 A-S253
1.4354,3LW5,intra,QDS,F-Q90 F-D143 F-S88
1.4357,3L0G,intra,HDS,C-H166 C-D164 C-S172
1.4360,4IX1,intra,HDS,G-H212 G-D215 G-S230
1.4363,1FP3,intra,QDS,A-Q296 A-D297 A-S283
1.4371,3L27,intra,QDS,D-Q331 D-D332 D-S299
1.4387,3L27,intra,HDS,D-H260 D-D218 D-S255
1.4387,1JTD,inter,HDS,A-H112 A-D115 B-S169
1.4387,2HPW,intra,QDS,A-Q89 A-D91 A-S87
1.4390,2X3L,intra,QDS,A-Q117 A-D114 A-S93
1.4400,3L0G,intra,HDS,A-H166 A-D164 A-S169
1.4403,1GD0,intra,HDS,B-H62 B-D100 B-S60
1.4407,3L0G,intra,HDS,A-H166 A-D164 A-S172
1.4427,3C75,intra,QDS,H-Q379 H-D380 H-S330
1.4433,3L0G,intra,HDS,B-H166 B-D164 B-S169
1.4433,3L27,inter,QDS,B-Q308 A-D218 B-S310
1.4434,2R5W,intra,HDS,A-H110 A-D131 A-S115
1.4434,3L0G,intra,QDS,A-Q103 A-D268 A-S110
1.4435,2DR3,intra,HDS,B-H17 B-D13 B-S218
1.4437,3C75,intra,HDS,H-H422 H-D83 H-S378
1.4437,1GD0,intra,HDS,A-H62 A-D100 A-S60
1.4442,3C75,intra,HDS,J-H422 J-D83 J-S378
1.4451,2HPW,intra,QDS,A-Q106 A-D108 A-S100
1.4456,3L0G,intra,QDS,B-Q103 B-D268 B-S110
1.4466,3DTG,intra,QDS,A-Q353 A-D359 A-S92
1.4469,2F6K,intra,QDS,B-Q294 B-D299 B-S2
1.4472,3C75,intra,QDS,J-Q379 J-D423 J-S330
1.4478,3C75,intra,QDS,J-Q379 J-D380 J-S330
1.4490,2ICT,intra,QDS,A-Q14 A-D18 A-S23
1.4498,3AR4,intra,HDS,A-H190 A-D579 A-S581
1.4499,2F6K,intra,QDS,A-Q277 A-D273 A-S265
1.4503,3LW5,intra,QDS,A-Q33 A-D23 A-S30
1.4532,4ASM,intra,QDS,B-Q195 B-D157 B-S201
1.4536,3W6B,intra,QDS,C-Q189 C-D188 C-S194
1.4554,3O8S,intra,QDS,A-Q86 A-D89 A-S93
1.4569,3LW5,intra,QDS,L-Q177 L-D174 L-S152
1.4584,1UEA,intra,HDS,A-H179 A-D181 A-S145
1.4589,3MMK,intra,QDS,A-Q288 A-D107 A-S290
1.4590,3C75,intra,QDS,H-Q379 H-D423 H-S330
1.4591,3W6B,intra,HDS,C-H213 C-D218 C-S209
1.4596,2AAO,inter,HDS,B-H100 A-D99 A-S20
1.4608,4NM6,intra,QDS,A-Q1414 A-D1376 A-S1898
1.4610,3L0G,intra,HDS,C-H166 C-D164 C-S169
1.4623,1WLF,intra,HDS,A-H129 A-D132 A-S125
1.4624,3AR4,intra,QDS,A-Q406 A-D408 A-S404
1.4633,3W6B,intra,QDS,D-Q189 D-D188 D-S194
1.4659,1UWC,intra,QDS,A-Q166 A-D93 A-S170
1.4668,1AK0,intra,HDS,A-H126 A-D63 A-S86
1.4671,3W6B,intra,QDS,B-Q189 B-D188 B-S194
1.4674,1Q8M,intra,QDS,B-Q52 B-D89 B-S50
1.4674,3DTG,intra,QDS,B-Q353 B-D359 B-S92
1.4684,4ASM,intra,HDS,B-H183 B-D193 B-S181
1.4687,3W6B,intra,QDS,A-Q189 A-D188 A-S194
1.4693,3LW5,intra,QDS,B-Q14 B-D15 B-S9
1.4716,3LW5,intra,HDS,B-H83 B-D364 B-S730
1.4735,3UHM,intra,HDS,A-H78 A-D241 A-S106
1.4745,2VW8,intra,HDS,A-H163 A-D178 A-S204
1.4751,2F6K,intra,HDS,A-H9 A-D266 A-S52
1.4759,1AK0,intra,HDS,A-H6 A-D120 A-S42
1.4764,4MI2,inter,QDS,B-Q241 C-D87 B-S238
1.4766,2F6K,intra,QDS,B-Q277 B-D273 B-S265
1.4795,4FTX,intra,HDS,B-H116 B-D114 B-S136
1.4806,1G7M,intra,QDS,A-Q37 A-D82 A-S85
1.4806,4FTX,intra,HDS,A-H116 A-D114 A-S136
1.4826,2WWF,intra,QDS,C-Q24 C-D98 C-S19
1.4829,4MI2,inter,QDS,A-Q241 B-D87 A-S238
1.4832,3L27,intra,HDS,A-H260 A-D218 A-S255
1.4833,1UEA,intra,QDS,D-Q150 D-D149 D-S155
1.4851,3QSI,inter,HDS,E-H105 E-D103 H-S143
1.4851,3MMK,intra,QDS,B-Q288 B-D107 B-S290
1.4866,1Y02,intra,QDS,A-Q64 A-D40 A-S51
1.4879,3C75,intra,HDS,H-H396 H-D410 H-S389
1.4909,1GJW,intra,HDS,A-H327 A-D326 A-S331
1.4915,3L23,intra,HDS,A-H148 A-D147 A-S109
1.4924,4EPS,intra,QDS,A-Q262 A-D260 A-S215
1.4925,3AR4,intra,QDS,A-Q692 A-D695 A-S346
1.4926,3DTG,intra,HDS,B-H361 B-D359 B-S275
1.4927,4FQO,intra,QDS,A-Q16 A-D12 A-S18
1.4929,1GXM,intra,QDS,A-Q620 A-D617 A-S608
1.4946,2AAO,intra,QDS,B-Q43 B-D81 B-S41
1.4950,3W6B,intra,HDS,B-H213 B-D218 B-S209
1.4953,3DTG,intra,HDS,A-H361 A-D359 A-S275
1.4959,3C75,intra,QDS,H-Q393 H-D410 H-S389
1.4963,2WWF,intra,QDS,B-Q143 B-D17 B-S146
1.4975,3L0G,intra,QDS,D-Q103 D-D268 D-S106
1.4982,1GXM,intra,QDS,B-Q620 B-D617 B-S608
1.4987,2F6K,intra,HDS,B-H9 B-D266 B-S52
1.4987,2WWF,intra,QDS,A-Q24 A-D98 A-S19
1.4989,3DTG,intra,QDS,B-Q278 B-D282 B-S275
1.4992,3C75,intra,QDS,J-Q379 J-D380 J-S426
1.4995,4NM6,intra,QDS,A-Q1852 A-D1849 A-S1449
1.4995,3C75,intra,HDS,J-H396 J-D410 J-S389
1.5002,1BFS,intra,QDS,A-Q274 A-D276 A-S335
1.5013,3C75,intra,HDS,H-H422 H-D83 H-S130
1.5014,1U2Z,intra,HDS,B-H545 B-D539 B-S542
1.5023,3DTG,intra,QDS,A-Q278 A-D282 A-S275
1.5024,3C75,intra,QDS,H-Q379 H-D380 H-S426
1.5039,1UWC,intra,HDS,B-H247 B-D245 B-S192
1.5039,3S4E,intra,HDS,A-H82 A-D83 A-S77
1.5063,3C75,intra,QDS,J-Q393 J-D410 J-S389
1.5068,3AR4,intra,QDS,A-Q360 A-D601 A-S362
1.5084,4EPS,intra,QDS,A-Q465 A-D466 A-S510
1.5093,2AAO,intra,QDS,A-Q43 A-D81 A-S41
1.5104,3C75,intra,HDS,L-H28 L-D24 L-S30
1.5111,2R5W,intra,HDS,B-H332 B-D331 B-S287
1.5113,3C75,intra,HDS,M-H28 M-D24 M-S30
1.5118,3DTG,intra,HDS,A-H326 A-D328 A-S189
1.5121,4NBO,intra,QDS,A-Q120 A-D124 A-S169
1.5121,2AAO,intra,QDS,A-Q43 A-D81 A-S77
1.5138,2R5W,intra,HDS,A-H332 A-D331 A-S287
1.5143,3C75,intra,HDS,J-H422 J-D83 J-S130
1.5143,1Q8M,intra,HDS,A-H91 A-D92 A-S77
1.5149,3LW5,intra,QDS,4-Q168 4-D169 4-S176
1.5157,3C75,intra,HDS,J-H422 J-D423 J-S378
1.5164,1FP3,intra,QDS,B-Q296 B-D297 B-S283
1.5171,3L0G,intra,QDS,C-Q103 C-D268 C-S106
1.5181,4FTX,intra,QDS,A-Q90 A-D86 A-S81
1.5182,3S4E,intra,QDS,A-Q65 A-D83 A-S77
1.5182,3L0G,intra,QDS,B-Q103 B-D268 B-S106
1.5192,3C75,intra,HDS,H-H422 H-D423 H-S378
1.5193,2VW8,intra,HDS,A-H69 A-D178 A-S160
1.5202,2X3L,inter,HDS,B-H106 B-D181 A-S244
1.5205,3W6B,intra,QDS,A-Q189 A-D188 A-S184
1.5208,3W6B,intra,QDS,B-Q189 B-D188 B-S184
1.5208,2HY7,intra,HDS,A-H204 A-D303 A-S156
1.5235,2WWF,intra,QDS,B-Q24 B-D98 B-S19
1.5237,4I1X,intra,QDS,A-Q146 A-D151 A-S181
1.5237,2X3L,inter,HDS,B-H26 A-D42 B-S35
1.5237,4EPS,intra,QDS,A-Q178 A-D43 A-S176
1.5246,3W6B,intra,QDS,D-Q189 D-D188 D-S184
1.5247,2X3L,inter,HDS,A-H26 B-D42 A-S35
1.5256,1UWC,intra,QDS,B-Q177 B-D174 B-S179
1.5258,3LW5,intra,QDS,A-Q151 A-D388 A-S147
1.5266,1Q8M,intra,HDS,C-H91 C-D92 C-S77
1.5269,1IR2,inter,QDS,H-Q209 D-D106 H-S181
1.5270,1Q8M,intra,HDS,D-H91 D-D92 D-S77
1.5281,1UWC,intra,HDS,A-H247 A-D245 A-S192
1.5314,1BOB,intra,QDS,A-Q271 A-D266 A-S233
1.5336,3L0G,intra,QDS,A-Q103 A-D268 A-S106
1.5361,3C75,intra,QDS,H-Q379 H-D423 H-S273
1.5367,2QEU,intra,QDS,A-Q15 A-D11 A-S46
1.5381,1AK0,intra,HDS,A-H60 A-D45 A-S56
1.5389,3L27,intra,HDS,B-H260 B-D218 B-S255
1.5390,1Q8M,intra,HDS,B-H91 B-D92 B-S77
1.5404,3W6B,intra,QDS,C-Q189 C-D188 C-S184
1.5405,4I1X,intra,HDS,A-H38 A-D294 A-S268
1.5433,4ASM,intra,QDS,B-Q246 B-D241 B-S285
1.5437,3MMK,intra,HDS,A-H51 A-D39 A-S53
1.5443,1URX,intra,QDS,A-Q92 A-D279 A-S47
1.5448,2F6K,intra,HDS,A-H9 A-D266 A-S57
1.5448,3W6B,inter,HDS,B-H179 B-D188 D-S149
1.5455,1UEA,intra,HDS,B-H95 B-D16 B-S100
1.5457,2XMR,intra,QDS,C-Q250 C-D276 C-S189
1.5459,4MI2,intra,QDS,C-Q69 C-D70 C-S29
1.5460,1IR2,inter,QDS,A-Q209 E-D106 A-S181
1.5466,3L27,intra,QDS,A-Q329 A-D332 A-S299
1.5470,3LW5,intra,QDS,B-Q368 B-D364 B-S118
1.5470,1JTD,intra,QDS,B-Q250 B-D245 B-S266
1.5488,2AAO,intra,QDS,B-Q43 B-D81 B-S77
1.5493,2X3L,inter,HDS,A-H106 A-D181 B-S244
1.5500,1UWC,intra,QDS,A-Q177 A-D174 A-S179
1.5500,3DTG,intra,HDS,B-H326 B-D328 B-S189
1.5514,2X3L,intra,HDS,A-H69 A-D71 A-S196
1.5523,1IR2,inter,QDS,Z-Q209 V-D106 Z-S181
1.5529,1IR2,inter,QDS,X-Q209 T-D106 X-S181
1.5530,2F6K,intra,HDS,B-H9 B-D266 B-S57
1.5533,4MI2,inter,QDS,C-Q241 A-D87 C-S238
1.5547,3C75,intra,QDS,J-Q379 J-D423 J-S273
1.5554,3KOT,intra,QDS,A-Q258 A-D260 A-S166
1.5564,1UEA,intra,QDS,D-Q153 D-D149 D-S155
1.5574,3LW5,intra,QDS,B-Q122 B-D364 B-S118
1.5579,3O8S,intra,QDS,A-Q78 A-D80 A-S195
1.5583,1AK0,intra,HDS,A-H60 A-D120 A-S86
1.5590,1IR2,inter,QDS,U-Q209 Y-D106 U-S181
1.5592,1IR2,inter,QDS,D-Q209 H-D106 D-S181
1.5593,2AAO,inter,HDS,B-H100 B-D99 A-S20
1.5596,4ASM,intra,QDS,B-Q326 B-D322 B-S324
1.5599,1U2Z,intra,HDS,A-H545 A-D539 A-S542
1.5606,2X3L,intra,HDS,B-H69 B-D71 B-S196
1.5607,3QSI,intra,QDS,F-Q87 F-D85 F-S90
1.5611,1JTD,intra,QDS,B-Q211 B-D206 B-S232
1.5618,3C75,intra,HDS,L-H120 L-D76 L-S39
1.5623,1IR2,inter,QDS,Y-Q209 U-D106 Y-S181
1.5632,1AVF,intra,HDS,A-H53 A-D118 A-S42
1.5633,3QSI,intra,QDS,B-Q87 B-D85 B-S90
1.5657,2F6K,intra,HDS,A-H7 A-D239 A-S52
1.5660,4MI2,intra,QDS,A-Q69 A-D70 A-S29
1.5666,4EPS,intra,QDS,A-Q69 A-D68 A-S97
1.5671,3QSI,intra,QDS,G-Q87 G-D85 G-S90
1.5673,1IR2,inter,QDS,C-Q209 G-D106 C-S181
1.5674,3C75,intra,QDS,J-Q379 J-D423 J-S276
1.5680,2VW8,intra,HDS,A-H69 A-D161 A-S93
1.5686,3LW5,intra,HDS,C-H3 C-D24 C-S76
1.5688,1U2Z,intra,HDS,C-H545 C-D539 C-S542
1.5692,1AVF,intra,HDS,J-H53 J-D118 J-S42
1.5693,3QSI,intra,QDS,I-Q87 I-D85 I-S90
1.5697,3MMK,intra,HDS,B-H51 B-D39 B-S53
1.5701,1IR2,inter,QDS,B-Q209 F-D106 B-S181
1.5711,3ZRW,intra,QDS,D-Q328 D-D332 D-S325
1.5713,3UHM,intra,QDS,A-Q171 A-D232 A-S155
1.5714,3QSI,intra,QDS,J-Q87 J-D85 J-S90
1.5718,3LW5,intra,QDS,L-Q177 L-D180 L-S94
1.5720,1IR2,inter,QDS,V-Q209 Z-D106 V-S181
1.5722,1IR2,inter,QDS,W-Q209 S-D106 W-S181
1.5723,3C75,intra,HDS,M-H120 M-D76 M-S39
1.5726,4MI2,intra,QDS,B-Q69 B-D70 B-S29
1.5727,1IR2,inter,QDS,S-Q209 W-D106 S-S181
1.5757,4F3Q,intra,QDS,A-Q216 A-D121 A-S213
1.5761,2GMK,intra,HDS,A-H97 A-D2 A-S54
1.5763,2QEU,intra,QDS,C-Q15 C-D11 C-S46
1.5764,3UHM,intra,HDS,A-H78 A-D241 A-S186
1.5769,3QSI,intra,QDS,H-Q87 H-D85 H-S90
1.5774,3Q20,intra,QDS,B-Q51 B-D52 B-S49
1.5777,4NBO,intra,HDS,B-H187 B-D186 B-S192
1.5779,1JTD,intra,QDS,B-Q172 B-D167 B-S154
1.5780,1GF5,intra,QDS,A-Q86 A-D91 A-S80
1.5782,4EPS,intra,QDS,A-Q465 A-D468 A-S510
1.5807,2X3L,inter,HDS,B-H210 A-D42 B-S253
1.5815,3C75,intra,QDS,J-Q329 J-D423 J-S426
1.5818,2VW8,intra,HDS,A-H163 A-D196 A-S204
1.5831,1Q8M,intra,HDS,B-H91 B-D89 B-S77
1.5836,3QSI,intra,QDS,C-Q87 C-D85 C-S90
1.5840,1U2Z,inter,HDS,C-H202 A-D425 C-S206
1.5850,4EPS,intra,QDS,A-Q465 A-D466 A-S473
1.5853,3W6B,inter,HDS,D-H179 D-D188 B-S149
1.5864,2F6K,intra,HDS,B-H7 B-D239 B-S52
1.5865,3QSI,intra,QDS,E-Q87 E-D85 E-S90
1.5878,3T47,intra,QDS,B-Q40 B-D37 B-S76
1.5881,3QSI,intra,QDS,A-Q87 A-D85 A-S90
1.5886,3C75,intra,QDS,H-Q329 H-D423 H-S426
1.5890,2X3L,inter,HDS,A-H210 B-D42 A-S253
1.5894,2AAO,inter,HDS,A-H100 A-D99 B-S20
1.5895,2VW8,intra,HDS,A-H159 A-D161 A-S204
1.5897,3W6B,intra,HDS,B-H179 B-D188 B-S174
1.5898,3QSI,intra,QDS,D-Q87 D-D85 D-S90
1.5898,1IR2,inter,QDS,E-Q209 A-D106 E-S181
1.5913,3LW5,intra,QDS,A-Q474 A-D475 A-S468
1.5913,1IR2,inter,QDS,G-Q209 C-D106 G-S181
1.5917,1IR2,inter,QDS,T-Q209 X-D106 T-S181
1.5930,2WWF,intra,QDS,C-Q143 C-D17 C-S146
1.5933,1IR2,inter,QDS,F-Q209 B-D106 F-S181
1.5938,2F6K,intra,HDS,A-H9 A-D266 A-S58
1.5939,2HPW,intra,QDS,A-Q95 A-D96 A-S66
1.5939,1IR2,inter,QDS,3-Q117 U-D160 V-S181
1.5940,2F6K,intra,HDS,B-H9 B-D266 B-S58
1.5944,4I1X,intra,HDS,B-H38 B-D294 B-S268
1.5965,2ZE6,intra,QDS,A-Q36 A-D33 A-S63
1.5967,2XMR,intra,QDS,B-Q250 B-D276 B-S189
1.5967,1IR2,inter,QDS,L-Q117 D-D160 A-S181
1.5975,3ZRW,intra,QDS,C-Q328 C-D332 C-S325
1.5990,1WLF,intra,HDS,A-H122 A-D148 A-S125
1.5994,2X3L,intra,QDS,B-Q118 B-D114 B-S93
1.5997,2F6K,intra,HDS,A-H7 A-D266 A-S52
1.6013,3LW5,inter,HDS,C-H71 B-D15 B-S9
1.6017,2WWF,intra,QDS,A-Q124 A-D123 A-S210
1.6017,3Q20,intra,QDS,A-Q51 A-D52 A-S49
1.6019,3AR4,intra,QDS,A-Q177 A-D176 A-S184
1.6020,1URX,intra,QDS,A-Q96 A-D252 A-S105
1.6024,3W6B,intra,HDS,C-H179 C-D188 C-S174
1.6024,4NM6,intra,QDS,A-Q1348 A-D1343 A-S1392
1.6042,2X3L,intra,QDS,A-Q118 A-D114 A-S93
1.6048,3C75,intra,QDS,H-Q329 H-D380 H-S426
1.6055,1UWC,intra,QDS,A-Q233 A-D230 A-S2
1.6071,1G7M,intra,HDS,B-H86 B-D89 B-S115
1.6075,3C75,intra,QDS,J-Q329 J-D380 J-S426
1.6082,1IR2,inter,QDS,P-Q117 H-D160 G-S181
1.6084,1IR2,inter,QDS,K-Q117 C-D160 D-S181
1.6097,1URX,intra,QDS,A-Q165 A-D157 A-S200
1.6107,1IR2,inter,QDS,7-Q117 Y-D160 X-S181
1.6110,3L0G,intra,HDS,D-H104 D-D140 D-S106
1.6120,1CNT,intra,QDS,1-Q107 1-D104 1-S37
1.6130,3C75,intra,QDS,H-Q100 H-D116 H-S136
1.6139,1IR2,inter,QDS,4-Q117 V-D160 S-S181
1.6141,1IR2,inter,QDS,1-Q117 S-D160 T-S181
1.6144,2F6K,intra,HDS,B-H7 B-D266 B-S52
1.6154,1G7M,intra,HDS,B-H86 B-D88 B-S115
1.6157,1IR2,inter,QDS,O-Q117 G-D160 F-S181
1.6157,1IR2,inter,QDS,2-Q117 T-D160 U-S181
1.6158,1G7M,intra,QDS,B-Q77 B-D72 B-S70
1.6159,3ZRW,intra,QDS,A-Q328 A-D332 A-S325
1.6160,3W6B,intra,HDS,B-H183 B-D188 B-S184
1.6175,1IR2,inter,QDS,8-Q117 Z-D160 Y-S181
1.6178,1IR2,inter,QDS,N-Q117 F-D160 E-S181
1.6185,3W6B,intra,HDS,D-H183 D-D188 D-S184
1.6192,1FP3,intra,HDS,A-H243 A-D297 A-S237
1.6194,1JTD,intra,HDS,A-H96 A-D115 A-S98
1.6202,3L0G,intra,HDS,A-H104 A-D140 A-S106
1.6212,2QEU,intra,QDS,B-Q15 B-D11 B-S46
1.6212,1G7M,intra,QDS,C-Q57 C-D52 C-S91
1.6213,1JTD,intra,QDS,A-Q206 A-D209 A-S124
1.6215,3C75,intra,QDS,J-Q329 J-D425 J-S273
1.6219,1U2Z,inter,HDS,B-H202 C-D425 B-S206
1.6224,1WLF,intra,QDS,A-Q133 A-D132 A-S59
1.6224,1IR2,inter,QDS,I-Q117 A-D160 B-S181
1.6226,1IR2,inter,QDS,M-Q117 E-D160 H-S181
1.6245,1UWC,intra,HDS,B-H97 B-D77 B-S137
1.6247,2VW8,intra,QDS,A-Q21 A-D19 A-S273
1.6260,1GJW,intra,HDS,A-H192 A-D380 A-S66
1.6271,2F6K,intra,QDS,A-Q90 A-D89 A-S50
1.6273,3AR4,intra,HDS,A-H190 A-D579 A-S167
1.6274,3C75,intra,HDS,M-H28 M-D32 M-S124
1.6284,3C75,intra,QDS,H-Q379 H-D425 H-S378
1.6288,4I1X,intra,QDS,B-Q146 B-D151 B-S181
1.6298,3C75,intra,QDS,J-Q100 J-D116 J-S136
1.6298,3C75,intra,QDS,J-Q339 J-D341 J-S349
1.6298,3C75,intra,QDS,J-Q393 J-D91 J-S389
1.6302,3C75,intra,QDS,H-Q393 H-D91 H-S389
1.6304,3C75,intra,QDS,J-Q379 J-D425 J-S378
1.6319,3C75,intra,QDS,H-Q339 H-D341 H-S349
1.6320,2DR3,intra,HDS,F-H108 F-D90 F-S99
1.6326,3W6B,intra,HDS,A-H183 A-D188 A-S184
1.6337,3L0G,intra,HDS,C-H104 C-D140 C-S106
1.6338,2X3L,intra,HDS,A-H187 A-D292 A-S196
1.6338,3C75,intra,HDS,L-H28 L-D32 L-S124
1.6339,4EPS,intra,QDS,A-Q437 A-D438 A-S443
1.6342,3UHM,intra,QDS,A-Q4 A-D89 A-S252
1.6348,2F6K,intra,QDS,B-Q90 B-D89 B-S50
1.6349,3LW5,intra,QDS,A-Q591 A-D582 A-S593
1.6350,3C75,inter,QDS,H-Q411 H-D410 M-S39
1.6352,4NBO,intra,HDS,A-H187 A-D186 A-S154
1.6354,1IR2,inter,QDS,6-Q117 X-D160 W-S181
1.6359,3C75,intra,QDS,H-Q290 H-D292 H-S273
1.6361,2HPW,intra,HDS,A-H145 A-D171 A-S146
1.6368,3W6B,intra,HDS,A-H179 A-D188 A-S174
1.6368,1UWC,intra,HDS,B-H208 B-D230 B-S170
1.6371,2VW8,intra,HDS,A-H221 A-D73 A-S273
1.6373,3LW5,intra,QDS,L-Q175 L-D174 L-S152
1.6380,3O8S,intra,QDS,A-Q103 A-D100 A-S104
1.6385,3C75,intra,QDS,J-Q290 J-D292 J-S273
1.6391,1IR2,inter,QDS,J-Q117 B-D160 C-S181
1.6396,3C75,intra,QDS,H-Q329 H-D425 H-S273
1.6398,3DTG,intra,HDS,B-H38 B-D37 B-S11
1.6401,3L0G,intra,HDS,B-H104 B-D140 B-S106
1.6403,3DTG,intra,HDS,A-H38 A-D37 A-S11
1.6405,1CNT,intra,HDS,2-H12 2-D15 2-S180
1.6412,1UEA,intra,HDS,D-H95 D-D16 D-S100
1.6430,2VW8,intra,HDS,A-H159 A-D196 A-S285
1.6441,1JTD,intra,HDS,B-H231 B-D245 B-S271
1.6446,2AAO,intra,HDS,B-H100 B-D99 B-S22
1.6459,2X3L,intra,HDS,B-H187 B-D292 B-S196
1.6460,1U2Z,inter,HDS,A-H202 B-D425 A-S206
1.6470,1IR2,inter,QDS,5-Q117 W-D160 Z-S181
1.6474,3V67,intra,QDS,B-Q63 B-D60 B-S67
1.6477,3W6B,intra,HDS,C-H183 C-D188 C-S184
1.6478,2WWF,intra,QDS,C-Q124 C-D123 C-S210
1.6478,1UWC,intra,HDS,A-H97 A-D77 A-S137
1.6479,3V67,intra,QDS,A-Q63 A-D60 A-S67
1.6491,1FP3,intra,HDS,B-H243 B-D297 B-S237
1.6491,4NM6,intra,QDS,A-Q1903 A-D1384 A-S1392
1.6515,1AVF,intra,QDS,J-Q95 J-D87 J-S19
1.6520,4NBO,intra,HDS,B-H187 B-D186 B-S154
1.6533,2VW8,intra,HDS,A-H163 A-D178 A-S160
1.6550,1FP3,intra,QDS,A-Q296 A-D299 A-S283
1.6554,3W6B,intra,HDS,D-H179 D-D188 D-S174
1.6558,4NM6,intra,QDS,A-Q1852 A-D1856 A-S1850
1.6574,2VW8,intra,QDS,A-Q98 A-D130 A-S102
1.6580,2WWF,intra,QDS,B-Q124 B-D123 B-S210
1.6580,1Q8M,intra,HDS,D-H91 D-D89 D-S51
1.6582,2VW8,intra,QDS,A-Q21 A-D73 A-S273
1.6591,3QSI,inter,HDS,D-H75 J-D85 J-S90
1.6595,2DR3,intra,QDS,D-Q171 D-D135 D-S29
1.6597,1AK0,intra,HDS,A-H107 A-D99 A-S104
1.6623,1JTD,intra,QDS,B-Q250 B-D245 B-S271
1.6626,3W6B,inter,QDS,D-Q187 D-D188 B-S184
1.6685,1BOB,intra,QDS,A-Q283 A-D279 A-S320
1.6705,1U2Z,intra,HDS,A-H330 A-D329 A-S282
1.6705,1G7M,inter,QDS,A-Q45 B-D104 A-S43
1.6714,3C75,inter,QDS,J-Q411 J-D410 L-S39
1.6721,3LW5,inter,HDS,C-H71 B-D15 C-S76
1.6732,3S4E,intra,QDS,A-Q78 A-D83 A-S-1
1.6738,2VW8,intra,HDS,A-H157 A-D196 A-S204
1.6768,2X3L,inter,HDS,B-H111 B-D114 A-S239
1.6773,3W6B,intra,QDS,B-Q189 B-D156 B-S142
1.6776,2VW8,intra,HDS,A-H221 A-D19 A-S273
1.6782,1AK0,intra,QDS,A-Q123 A-D127 A-S86
1.6795,3W6B,intra,QDS,C-Q189 C-D156 C-S184
1.6803,2X3L,intra,QDS,A-Q201 A-D71 A-S196
1.6803,1FP3,intra,QDS,B-Q296 B-D299 B-S283
1.6804,1BFS,intra,QDS,A-Q279 A-D277 A-S299
1.6805,3LW5,intra,QDS,A-Q392 A-D388 A-S394
1.6818,2HPW,intra,QDS,A-Q106 A-D104 A-S100
1.6822,3C75,inter,QDS,J-Q101 J-D91 L-S83
1.6827,3L0G,intra,QDS,C-Q198 C-D194 C-S202
1.6835,3C75,inter,QDS,J-Q100 J-D91 L-S83
1.6844,3W6B,inter,QDS,B-Q187 B-D188 D-S184
1.6848,2F6K,intra,QDS,A-Q90 A-D89 A-S52
1.6869,1CNT,intra,HDS,3-H174 3-D175 3-S181
1.6876,3QSI,inter,HDS,E-H105 E-D73 H-S143
1.6883,2WWF,intra,QDS,A-Q143 A-D17 A-S146
1.6884,1UWC,intra,QDS,B-Q177 B-D174 B-S180
1.6884,2DR3,intra,QDS,F-Q171 F-D135 F-S29
1.6886,2F6K,intra,QDS,B-Q90 B-D89 B-S52
1.6886,1U2Z,intra,HDS,B-H330 B-D329 B-S282
1.6890,3L0G,intra,QDS,D-Q198 D-D194 D-S202
1.6895,2R5W,intra,HDS,A-H110 A-D131 A-S114
1.6897,1SU0,intra,HDS,B-H22 B-D16 B-S72
1.6900,3W6B,intra,QDS,B-Q189 B-D156 B-S184
1.6903,1JTD,intra,QDS,A-Q99 A-D101 A-S106
1.6905,2AAO,intra,QDS,B-Q43 B-D37 B-S41
1.6905,3L23,intra,QDS,A-Q179 A-D175 A-S181
1.6910,2EN3,intra,HDS,A-H35 A-D39 A-S34
1.6912,3KOT,intra,HDS,A-H126 A-D142 A-S128
1.6929,4I1X,inter,QDS,B-Q106 A-D297 B-S101
1.6934,1U2Z,intra,HDS,C-H330 C-D329 C-S282
1.6940,3LW5,intra,QDS,A-Q257 A-D253 A-S261
1.6953,3L0G,intra,QDS,D-Q265 D-D268 D-S110
1.6956,3ZRW,inter,QDS,D-Q361 D-D362 C-S359
1.6973,3ZRW,inter,QDS,B-Q361 B-D362 A-S359
1.6974,3ZRW,inter,QDS,A-Q361 A-D362 B-S359
1.6974,3L0G,intra,QDS,B-Q198 B-D194 B-S202
1.6989,2XMR,inter,HDS,C-H170 C-D166 B-S270
1.6991,3L27,intra,QDS,B-Q329 B-D332 B-S299
1.7001,2F6K,intra,HDS,B-H7 B-D239 B-S55
1.7004,3L27,intra,QDS,C-Q329 C-D332 C-S299
1.7009,1UEA,inter,HDS,A-H166 A-D177 B-S68
1.7014,1JTD,intra,QDS,B-Q172 B-D168 B-S154
1.7015,1BOB,intra,QDS,A-Q241 A-D246 A-S125
1.7017,3C75,inter,QDS,H-Q100 H-D91 M-S83
1.7018,4ASM,intra,QDS,B-Q154 B-D299 B-S311
1.7037,3LW5,intra,HDS,A-H355 A-D421 A-S359
1.7047,3L0G,intra,QDS,A-Q265 A-D268 A-S110
1.7051,3LW5,intra,HDS,B-H29 B-D30 B-S49
1.7054,3L27,intra,QDS,D-Q329 D-D332 D-S299
1.7057,1UWC,intra,QDS,B-Q233 B-D230 B-S2
1.7058,2F6K,intra,HDS,A-H7 A-D239 A-S55
1.7060,3C75,intra,QDS,J-Q323 J-D373 J-S349
1.7075,2VW8,intra,HDS,A-H163 A-D162 A-S204
1.7078,3C75,inter,QDS,H-Q101 H-D91 M-S83
1.7081,3C75,intra,QDS,H-Q323 H-D373 H-S349
1.7090,2F6K,intra,HDS,A-H302 A-D299 A-S2
1.7096,4EPS,intra,HDS,A-H379 A-D380 A-S393
1.7100,3W6B,intra,QDS,D-Q189 D-D156 D-S142
1.7103,1UEA,inter,QDS,D-Q153 D-D149 C-S225
1.7103,1URX,intra,QDS,A-Q21 A-D46 A-S91
1.7123,3L0G,intra,QDS,C-Q265 C-D268 C-S110
1.7127,2X3L,intra,QDS,B-Q201 B-D71 B-S196
1.7128,1UWC,intra,QDS,A-Q177 A-D174 A-S180
1.7141,2XMR,intra,HDS,A-H253 A-D255 A-S189
1.7146,1UWC,intra,QDS,B-Q166 B-D230 B-S170
1.7150,2QEU,intra,QDS,C-Q15 C-D43 C-S9
1.7164,4EPS,intra,HDS,A-H257 A-D260 A-S215
1.7173,2X3L,inter,HDS,A-H111 A-D114 B-S239
1.7180,4ASM,intra,QDS,B-Q195 B-D198 B-S181
1.7180,1WLF,intra,QDS,A-Q128 A-D132 A-S125
1.7182,3W6B,intra,QDS,A-Q189 A-D156 A-S184
1.7203,3W6B,intra,QDS,D-Q189 D-D156 D-S184
1.7204,2VW8,intra,HDS,A-H159 A-D178 A-S160
1.7217,2F6K,intra,QDS,B-Q90 B-D5 B-S2
1.7220,4NBO,intra,HDS,A-H187 A-D186 A-S192
1.7226,2QEU,intra,QDS,B-Q15 B-D43 B-S9
1.7248,3L0G,intra,QDS,B-Q265 B-D268 B-S110
1.7263,2F6K,intra,QDS,A-Q90 A-D5 A-S2
1.7292,3FN2,intra,QDS,A-Q107 A-D108 A-S105
1.7292,1UEA,intra,QDS,C-Q236 C-D238 C-S244
1.7293,3C75,intra,QDS,M-Q68 M-D66 M-S69
1.7296,2DR3,intra,QDS,A-Q171 A-D135 A-S29
1.7310,4ASM,intra,QDS,B-Q246 B-D241 B-S287
1.7330,3ZRW,inter,QDS,C-Q361 C-D362 D-S359
1.7340,3MMK,intra,QDS,B-Q61 B-D59 B-S74
1.7346,2X3L,intra,QDS,B-Q207 B-D181 B-S220
1.7354,3UHM,intra,HDS,A-H19 A-D74 A-S20
1.7358,1TM7,intra,HDS,E-H39 E-D41 E-S37
1.7360,1UEA,intra,HDS,C-H179 C-D177 C-S145
1.7360,2X3L,intra,QDS,A-Q207 A-D181 A-S220
1.7369,4I1X,intra,HDS,B-H219 B-D246 B-S267
1.7373,3KOT,intra,QDS,A-Q176 A-D182 A-S175
1.7375,3C75,intra,QDS,L-Q68 L-D66 L-S69
1.7388,1TM7,intra,HDS,E-H64 E-D32 E-S63
1.7390,1URX,intra,QDS,A-Q183 A-D181 A-S170
1.7390,2DR3,intra,QDS,C-Q171 C-D135 C-S29
1.7391,1UEA,inter,HDS,C-H166 C-D177 D-S68
1.7400,3W6B,intra,QDS,C-Q189 C-D156 C-S142
1.7404,1AVF,intra,QDS,A-Q95 A-D87 A-S19
1.7413,2ZE6,intra,QDS,A-Q218 A-D221 A-S101
1.7421,3C75,intra,QDS,J-Q329 J-D425 J-S276
1.7438,2X3L,inter,HDS,A-H210 B-D42 B-S245
1.7444,3C75,intra,QDS,H-Q329 H-D423 H-S273
1.7446,2X3L,intra,HDS,B-H53 B-D51 B-S245
1.7447,3C75,intra,HDS,J-H422 J-D425 J-S378
1.7450,2XMR,intra,QDS,A-Q250 A-D276 A-S189
1.7458,3L0G,intra,QDS,A-Q198 A-D194 A-S202
1.7466,3C75,intra,HDS,H-H422 H-D423 H-S130
1.7468,3ZRW,intra,QDS,B-Q328 B-D332 B-S325
1.7472,3LW5,intra,HDS,A-H67 A-D65 A-S69
1.7487,3C75,intra,HDS,H-H422 H-D425 H-S378
1.7487,2F6K,intra,HDS,B-H302 B-D299 B-S2
1.7488,2X3L,intra,QDS,A-Q207 A-D181 A-S208
1.7489,1U2Z,inter,HDS,B-H202 C-D425 B-S201
1.7497,3C75,intra,HDS,J-H422 J-D423 J-S130
1.7499,3C75,intra,QDS,H-Q329 H-D425 H-S276
1.7513,2X3L,intra,QDS,B-Q207 B-D181 B-S208
1.7519,2X3L,intra,HDS,A-H184 A-D181 A-S208
1.7528,1CNT,intra,HDS,3-H12 3-D15 3-S180
1.7532,2F6K,intra,HDS,A-H154 A-D179 A-S58
1.7535,3DLO,intra,HDS,B-H39 B-D11 B-S40
1.7546,2AAO,intra,QDS,A-Q43 A-D37 A-S41
1.7550,2R5W,intra,QDS,B-Q296 B-D295 B-S299
1.7552,1U2Z,inter,HDS,A-H202 B-D425 A-S201
1.7553,2HY7,intra,HDS,A-H23 A-D24 A-S22
1.7554,2XMR,intra,HDS,C-H253 C-D255 C-S189
1.7554,2DR3,intra,QDS,E-Q171 E-D135 E-S29
1.7558,4I1X,intra,HDS,A-H219 A-D246 A-S267
1.7560,1UEA,intra,HDS,C-H179 C-D153 C-S145
1.7565,3C75,intra,QDS,J-Q329 J-D423 J-S273
1.7569,2X3L,inter,HDS,B-H210 A-D42 A-S245
1.7574,3DTG,intra,QDS,A-Q216 A-D225 A-S189
1.7578,1U2Z,inter,HDS,C-H202 A-D425 C-S201
1.7578,3LW5,intra,HDS,B-H34 B-D36 B-S33
1.7580,3W6B,intra,QDS,A-Q189 A-D156 A-S142
1.7581,3W6B,intra,QDS,D-Q187 D-D188 D-S184
1.7590,3W6B,intra,QDS,A-Q187 A-D188 A-S184
1.7594,3LW5,intra,QDS,A-Q644 A-D479 A-S645
1.7594,3L27,intra,HDS,B-H260 B-D257 B-S220
1.7599,2VW8,intra,HDS,A-H71 A-D178 A-S160
1.7606,1TM7,intra,QDS,E-Q59 E-D36 E-S63
1.7613,3C75,intra,HDS,H-H327 H-D331 H-S276
1.7620,4FTX,intra,QDS,B-Q90 B-D86 B-S92
1.7621,2R5W,intra,HDS,B-H110 B-D131 B-S114
1.7626,3W6B,inter,QDS,B-Q189 B-D156 D-S185
1.7626,3DLO,intra,HDS,A-H39 A-D11 A-S40
1.7628,1BOB,intra,QDS,A-Q175 A-D171 A-S218
1.7634,3DTG,intra,QDS,B-Q216 B-D225 B-S189
1.7636,1U2Z,intra,QDS,B-Q434 B-D429 B-S353
1.7640,1U2Z,intra,QDS,C-Q434 C-D429 C-S353
1.7649,2R5W,intra,HDS,B-H110 B-D131 B-S115
1.7650,3C75,intra,HDS,J-H327 J-D331 J-S276
1.7652,3DLO,intra,HDS,C-H39 C-D11 C-S40
1.7660,3W6B,intra,QDS,C-Q187 C-D188 C-S184
1.7663,3MMK,intra,QDS,A-Q61 A-D59 A-S74
1.7675,4FTX,intra,QDS,A-Q90 A-D86 A-S92
1.7686,4NM6,intra,QDS,A-Q1435 A-D1427 A-S1424
1.7688,3W6B,intra,QDS,B-Q187 B-D188 B-S184
1.7688,2X3L,intra,HDS,B-H184 B-D181 B-S208
1.7699,1URX,intra,HDS,A-H171 A-D149 A-S147
1.7700,3C75,intra,HDS,H-H345 H-D341 H-S349
1.7702,2X3L,intra,HDS,A-H53 A-D51 A-S245
1.7718,1FP3,intra,HDS,B-H31 B-D32 B-S30
1.7734,3DLO,intra,HDS,D-H39 D-D11 D-S40
1.7742,3L27,intra,HDS,D-H260 D-D257 D-S220
1.7747,2HY7,intra,HDS,A-H23 A-D24 A-S21
1.7754,3C75,intra,QDS,J-Q379 J-D423 J-S378
1.7755,3C75,intra,QDS,H-Q379 H-D423 H-S378
1.7758,3L27,intra,HDS,C-H260 C-D257 C-S220
1.7772,3C75,intra,HDS,J-H345 J-D341 J-S349
1.7777,1GD0,inter,QDS,A-Q35 C-D92 C-S52
1.7782,4I1X,inter,QDS,A-Q106 B-D297 A-S101
1.7791,1U2Z,intra,QDS,A-Q434 A-D429 A-S353
1.7793,3MMK,intra,QDS,B-Q63 B-D66 B-S52
1.7795,2F6K,intra,HDS,B-H154 B-D179 B-S58
1.7808,1UEA,intra,HDS,A-H179 A-D177 A-S145
1.7815,1AVF,intra,QDS,J-Q69 J-D131 J-S72
1.7817,3L27,intra,HDS,A-H260 A-D257 A-S220
1.7818,3W6B,inter,QDS,D-Q189 D-D156 B-S185
1.7818,1FP3,intra,HDS,A-H31 A-D32 A-S30
1.7833,4FTX,intra,QDS,B-Q121 B-D126 B-S81
1.7845,1TM7,intra,HDS,E-H64 E-D32 E-S125
1.7846,2F6K,intra,HDS,A-H9 A-D266 A-S55
1.7865,3QSI,inter,QDS,D-Q76 J-D85 J-S90
1.7873,1UEA,inter,QDS,D-Q153 C-D228 C-S225
1.7876,1SU0,intra,HDS,B-H23 B-D77 B-S73
1.7881,1IR2,intra,QDS,M-Q133 M-D131 M-S16
1.7882,1GJW,intra,QDS,A-Q374 A-D406 A-S66
1.7901,3T47,intra,QDS,B-Q40 B-D37 B-S32
1.7902,3AR4,intra,QDS,A-Q202 A-D203 A-S488
1.7919,4FTX,intra,QDS,B-Q90 B-D86 B-S81
1.7920,1Q8M,intra,HDS,A-H91 A-D89 A-S51
1.7933,3DTG,intra,HDS,A-H38 A-D130 A-S11
1.7939,3LW5,inter,QDS,A-Q666 B-D622 A-S662
1.7945,1IR2,intra,QDS,J-Q133 J-D131 J-S16
1.7946,3KOT,intra,QDS,A-Q270 A-D154 A-S271
1.7954,4NBO,intra,HDS,B-H187 B-D186 B-S182
1.7967,3KOT,intra,QDS,A-Q258 A-D260 A-S162
1.7969,2DR3,intra,QDS,B-Q171 B-D135 B-S29
1.7976,3LW5,intra,HDS,B-H34 B-D35 B-S33
1.8015,2XMR,intra,HDS,B-H253 B-D255 B-S189
1.8026,1CNT,intra,HDS,3-H174 3-D175 3-S180
1.8039,1UEA,intra,QDS,D-Q150 D-D149 D-S161
1.8044,3LW5,intra,HDS,B-H34 B-D35 B-S9
1.8045,3MMK,intra,QDS,A-Q63 A-D66 A-S52
1.8063,3L0G,intra,QDS,A-Q265 A-D268 A-S106
1.8069,1Q8M,inter,QDS,C-Q35 C-D38 A-S77
1.8073,3S4E,intra,QDS,A-Q65 A-D79 A-S186
1.8074,2VW8,intra,HDS,A-H69 A-D73 A-S160
1.8101,2QEU,intra,HDS,A-H19 A-D23 A-S55
1.8110,2QEU,intra,HDS,B-H19 B-D23 B-S55
1.8126,3L27,intra,HDS,C-H260 C-D218 C-S255
1.8126,2JVX,intra,QDS,A-Q12 A-D15 A-S1
1.8128,3AR4,intra,QDS,A-Q177 A-D176 A-S210
1.8128,4NM6,intra,QDS,A-Q1852 A-D1849 A-S1853
1.8130,4EPS,intra,QDS,A-Q435 A-D430 A-S371
1.8137,1IR2,intra,QDS,3-Q133 3-D131 3-S16
1.8137,1FP3,inter,QDS,B-Q17 B-D20 A-S399
1.8143,1FP3,intra,QDS,A-Q223 A-D274 A-S283
1.8145,2F6K,intra,HDS,B-H9 B-D266 B-S55
1.8148,1AK0,intra,HDS,A-H60 A-D45 A-S58
1.8149,3AR4,intra,HDS,A-H683 A-D659 A-S682
1.8153,4MI2,inter,QDS,A-Q240 B-D87 A-S238
1.8158,1IR2,intra,QDS,2-Q133 2-D131 2-S16
1.8174,2AAO,inter,HDS,A-H100 A-D99 B-S22
1.8174,4I1X,intra,HDS,B-H219 B-D246 B-S266
1.8182,1GJW,intra,HDS,A-H217 A-D219 A-S211
1.8186,1GD0,intra,QDS,A-Q45 A-D44 A-S53
1.8186,3C75,intra,QDS,J-Q329 J-D425 J-S378
1.8186,4NM6,intra,QDS,A-Q1389 A-D1384 A-S1392
1.8190,4NM6,intra,QDS,A-Q1191 A-D1849 A-S1853
1.8198,4I1X,intra,HDS,A-H219 A-D246 A-S266
1.8204,1GXM,intra,QDS,A-Q512 A-D451 A-S532
1.8209,3C75,intra,QDS,H-Q329 H-D425 H-S378
1.8216,1UEA,intra,HDS,C-H96 C-D141 C-S133
1.8220,3L0G,intra,HDS,B-H68 B-D73 B-S79
1.8220,3L27,inter,QDS,B-Q288 C-D289 B-S253
1.8223,1AVF,intra,QDS,A-Q69 A-D131 A-S72
1.8228,2R5W,intra,QDS,A-Q296 A-D214 A-S299
1.8237,3L0G,intra,HDS,A-H68 A-D73 A-S79
1.8243,3C75,intra,QDS,J-Q379 J-D425 J-S273
1.8246,1FP3,intra,QDS,B-Q223 B-D274 B-S283
1.8252,1IR2,inter,QDS,X-Q209 T-D106 T-S112
1.8253,3L0G,intra,HDS,D-H68 D-D73 D-S79
1.8258,2X3L,intra,HDS,A-H225 A-D73 A-S70
1.8270,1UEA,intra,QDS,B-Q153 B-D149 B-S155
1.8272,1BFS,intra,QDS,A-Q279 A-D276 A-S335
1.8275,3L0G,intra,HDS,D-H104 D-D140 D-S110
1.8279,1Q8M,intra,HDS,B-H91 B-D89 B-S51
1.8301,3ZRW,intra,QDS,D-Q328 D-D331 D-S325
1.8307,3LW5,intra,HDS,A-H67 A-D63 A-S69
1.8319,1GXM,intra,QDS,B-Q512 B-D451 B-S532
1.8321,3L0G,intra,QDS,B-Q265 B-D268 B-S106
1.8329,3AR4,intra,QDS,A-Q28 A-D149 A-S19
1.8336,1IR2,inter,QDS,E-Q209 A-D106 A-S112
1.8339,1IR2,intra,QDS,5-Q133 5-D131 5-S16
1.8353,3ZRW,intra,QDS,C-Q328 C-D331 C-S325
1.8354,1TM7,intra,HDS,E-H39 E-D41 E-S207
1.8361,1TM7,intra,HDS,E-H64 E-D60 E-S207
1.8363,4NBO,inter,QDS,A-Q120 A-D124 B-S207
1.8369,3C75,intra,QDS,H-Q134 H-D164 H-S136
1.8370,4NBO,inter,HDS,B-H180 B-D178 A-S169
1.8376,1UEA,intra,HDS,A-H96 A-D141 A-S133
1.8378,4IX1,intra,HDS,C-H212 C-D215 C-S233
1.8379,3L0G,intra,QDS,D-Q265 D-D268 D-S106
1.8385,4IX1,intra,HDS,D-H212 D-D215 D-S233
1.8392,4IX1,intra,HDS,A-H212 A-D215 A-S233
1.8392,2XMR,intra,QDS,A-Q250 A-D255 A-S189
1.8393,1UEA,intra,HDS,C-H151 C-D181 C-S145
1.8399,2QEU,intra,QDS,A-Q15 A-D43 A-S9
1.8409,1BOB,intra,HDS,A-H285 A-D287 A-S320
1.8419,4IX1,intra,HDS,B-H212 B-D215 B-S233
1.8420,3C75,intra,QDS,H-Q379 H-D425 H-S273
1.8421,2HPW,intra,QDS,A-Q178 A-D171 A-S146
1.8422,1CNT,intra,QDS,4-Q107 4-D104 4-S37
1.8433,3W6B,inter,HDS,B-H183 B-D188 D-S185
1.8438,3LW5,inter,QDS,D-Q136 A-D571 A-S566
1.8438,4IX1,intra,HDS,E-H212 E-D215 E-S233
1.8445,3L0G,intra,HDS,A-H104 A-D140 A-S110
1.8457,4IX1,intra,HDS,F-H212 F-D215 F-S233
1.8458,4MI2,inter,QDS,B-Q240 C-D87 B-S238
1.8458,2AAO,inter,HDS,B-H100 A-D99 B-S22
1.8459,1IR2,inter,QDS,A-Q209 E-D106 E-S112
1.8461,1IR2,inter,QDS,B-Q209 F-D106 F-S112
1.8463,3L0G,intra,HDS,C-H104 C-D140 C-S110
1.8472,4EPS,intra,QDS,A-Q465 A-D466 A-S515
1.8475,4IX1,intra,HDS,H-H212 H-D215 H-S233
1.8476,3UHM,intra,HDS,A-H78 A-D245 A-S63
1.8476,1GXM,intra,QDS,B-Q620 B-D617 B-S622
1.8479,1U2Z,intra,QDS,C-Q516 C-D560 C-S565
1.8486,1Q8M,intra,HDS,D-H91 D-D89 D-S77
1.8489,3C75,intra,QDS,J-Q134 J-D164 J-S136
1.8492,3W6B,inter,HDS,D-H183 D-D188 B-S185
1.8494,1IR2,intra,HDS,C-H294 C-D203 C-S379
1.8502,3S4E,intra,QDS,A-Q78 A-D79 A-S150
1.8504,1IR2,intra,HDS,F-H294 F-D203 F-S379
1.8508,3L0G,intra,QDS,C-Q265 C-D268 C-S106
1.8516,1IR2,inter,QDS,H-Q209 D-D106 D-S112
1.8517,1JTD,intra,QDS,A-Q206 A-D209 A-S203
1.8522,1Q8M,intra,HDS,C-H91 C-D89 C-S51
1.8534,3DTG,intra,HDS,B-H38 B-D130 B-S11
1.8545,2AFR,intra,QDS,A-Q80 A-D78 A-S84
1.8548,1IR2,intra,HDS,Z-H294 Z-D203 Z-S379
1.8559,2QEU,intra,HDS,C-H19 C-D23 C-S55
1.8568,1IR2,intra,HDS,D-H294 D-D203 D-S379
1.8581,1IR2,intra,HDS,V-H294 V-D203 V-S379
1.8585,1IR2,intra,HDS,W-H294 W-D203 W-S379
1.8588,1Q8M,intra,QDS,C-Q52 C-D89 C-S51
1.8590,4EPS,intra,HDS,A-H290 A-D296 A-S303
1.8598,1JTD,intra,QDS,B-Q133 B-D168 B-S154
1.8598,4IX1,intra,HDS,G-H212 G-D215 G-S233
1.8618,3LW5,intra,HDS,A-H355 A-D421 A-S353
1.8619,1URX,intra,HDS,A-H171 A-D233 A-S147
1.8625,4NM6,intra,HDS,A-H1904 A-D1384 A-S1290
1.8633,1U2Z,intra,QDS,C-Q357 C-D426 C-S353
1.8635,3L0G,inter,QDS,A-Q265 A-D268 C-S263
1.8640,3C75,intra,QDS,H-Q101 H-D116 H-S136
1.8645,1IR2,intra,HDS,H-H294 H-D203 H-S379
1.8651,1IR2,intra,HDS,E-H294 E-D203 E-S379
1.8658,3L0G,intra,HDS,B-H104 B-D140 B-S110
1.8660,2VW8,intra,HDS,A-H159 A-D197 A-S160
1.8672,1GJW,intra,QDS,A-Q67 A-D380 A-S70
1.8672,4ASM,intra,QDS,B-Q323 B-D322 B-S324
1.8674,1AVF,inter,QDS,J-Q95 J-D87 A-S93
1.8688,1U2Z,intra,QDS,C-Q357 C-D429 C-S353
1.8688,4FTX,intra,QDS,A-Q90 A-D83 A-S92
1.8688,2WWF,inter,HDS,B-H171 B-D173 A-S19
1.8692,4EPS,intra,QDS,A-Q150 A-D236 A-S148
1.8695,3L0G,intra,HDS,C-H68 C-D73 C-S79
1.8696,1URX,intra,QDS,A-Q92 A-D279 A-S91
1.8699,3Q20,intra,QDS,A-Q29 A-D34 A-S38
1.8700,3LW5,intra,HDS,A-H542 A-D538 A-S457
1.8702,1IR2,inter,QDS,C-Q209 G-D106 G-S112
1.8704,1AVF,intra,QDS,J-Q99 J-D87 J-S19
1.8709,1U2Z,intra,QDS,B-Q357 B-D426 B-S353
1.8714,1IR2,intra,HDS,B-H294 B-D203 B-S379
1.8718,3C75,intra,QDS,J-Q101 J-D116 J-S136
1.8720,1GD0,intra,QDS,C-Q45 C-D44 C-S53
1.8722,1G7M,intra,QDS,B-Q77 B-D72 B-S28
1.8725,1UEA,intra,HDS,A-H179 A-D182 A-S145
1.8726,1IR2,intra,HDS,U-H294 U-D203 U-S379
1.8729,1UWC,intra,HDS,B-H97 B-D77 B-S163
1.8733,1U2Z,intra,QDS,A-Q357 A-D426 A-S353
1.8734,1IR2,intra,HDS,A-H294 A-D203 A-S379
1.8743,1U2Z,intra,QDS,B-Q357 B-D429 B-S353
1.8750,3LW5,inter,QDS,D-Q136 A-D571 A-S565
1.8751,3L0G,inter,QDS,D-Q265 D-D268 B-S263
1.8754,3LW5,intra,HDS,B-H34 B-D30 B-S33
1.8761,3W6B,inter,HDS,D-H183 B-D156 B-S184
1.8762,2ZKO,intra,QDS,B-Q10 B-D12 B-S8
1.8763,1TM7,intra,HDS,E-H67 E-D32 E-S221
1.8764,2HPW,intra,QDS,A-Q184 A-D96 A-S66
1.8769,3C75,intra,HDS,L-H120 L-D76 L-S83
1.8773,1G7M,intra,QDS,C-Q41 C-D52 C-S36
1.8773,1IR2,intra,HDS,S-H294 S-D203 S-S379
1.8785,2VW8,intra,HDS,A-H159 A-D162 A-S204
1.8797,3L23,intra,QDS,A-Q179 A-D182 A-S240
1.8798,3L0G,inter,QDS,C-Q265 C-D268 A-S263
1.8801,3L0G,inter,QDS,B-Q265 B-D268 D-S263
1.8801,4NM6,intra,HDS,A-H1904 A-D1384 A-S1369
1.8811,4EPS,intra,HDS,A-H257 A-D217 A-S215
1.8813,1FP3,inter,QDS,A-Q17 A-D20 B-S399
1.8836,2XMR,intra,QDS,C-Q109 C-D112 C-S106
1.8837,3T47,intra,QDS,A-Q62 A-D61 A-S53
1.8843,1Q8M,intra,QDS,A-Q52 A-D89 A-S51
1.8851,1CNT,intra,HDS,1-H106 1-D104 1-S37
1.8853,2XMR,intra,QDS,A-Q109 A-D112 A-S106
1.8864,3C75,intra,HDS,M-H120 M-D76 M-S83
1.8871,2XMR,intra,QDS,B-Q109 B-D112 B-S106
1.8884,1URX,intra,QDS,A-Q92 A-D46 A-S52
1.8886,1UEA,intra,HDS,A-H179 A-D153 A-S145
1.8886,1URX,intra,HDS,A-H172 A-D233 A-S170
1.8886,2X3L,intra,HDS,B-H225 B-D73 B-S70
1.8905,3LW5,intra,QDS,A-Q144 A-D135 A-S671
1.8905,1IR2,inter,QDS,L-Q115 L-D111 A-S181
1.8906,2XMR,intra,QDS,C-Q250 C-D255 C-S189
1.8916,1CNT,intra,HDS,1-H174 1-D175 1-S180
1.8919,3L0G,intra,QDS,D-Q198 D-D164 D-S172
1.8919,1WLF,intra,QDS,A-Q91 A-D52 A-S87
1.8922,1GXM,intra,QDS,A-Q620 A-D617 A-S622
1.8927,3L0G,intra,QDS,C-Q198 C-D194 C-S197
1.8932,1Q8M,intra,QDS,B-Q52 B-D89 B-S51
1.8946,3L0G,intra,QDS,C-Q198 C-D164 C-S172
1.8947,1GD0,intra,QDS,B-Q45 B-D44 B-S53
1.8950,1SU0,intra,HDS,B-H22 B-D77 B-S73
1.8951,1Q8M,intra,HDS,D-H93 D-D92 D-S77
1.8958,3L0G,intra,QDS,B-Q198 B-D194 B-S197
1.8981,3LW5,intra,QDS,B-Q368 B-D364 B-S730
1.9000,3ZRW,intra,QDS,B-Q328 B-D331 B-S325
1.9001,2ZKO,intra,QDS,A-Q10 A-D12 A-S8
1.9014,1URX,intra,QDS,A-Q96 A-D271 A-S105
1.9015,1AK0,intra,HDS,A-H116 A-D45 A-S86
1.9024,1UWC,intra,HDS,A-H97 A-D77 A-S163
1.9028,3L0G,intra,QDS,B-Q198 B-D164 B-S172
1.9029,1TM7,intra,HDS,E-H67 E-D36 E-S33
1.9030,2WWF,intra,QDS,B-Q159 B-D17 B-S103
1.9047,1UEA,intra,QDS,B-Q150 B-D149 B-S155
1.9048,1URX,intra,QDS,A-Q183 A-D233 A-S170
1.9060,2VW8,intra,HDS,A-H69 A-D162 A-S160
1.9067,1URX,intra,QDS,A-Q85 A-D252 A-S68
1.9073,4FQO,intra,HDS,A-H15 A-D12 A-S18
1.9085,3W6B,intra,HDS,B-H213 B-D235 B-S209
1.9087,3AR4,intra,HDS,A-H284 A-D281 A-S287
1.9087,2ZKO,intra,QDS,B-Q40 B-D12 B-S42
1.9087,3LW5,intra,HDS,A-H302 A-D298 A-S215
1.9087,1AVF,intra,QDS,A-Q99 A-D87 A-S19
1.9090,1UEA,inter,HDS,A-H205 A-D177 B-S68
1.9098,4MI2,inter,QDS,C-Q240 A-D87 C-S238
1.9099,3S4E,intra,QDS,A-Q78 A-D83 A-S77
1.9099,3L0G,intra,QDS,D-Q198 D-D194 D-S197
1.9101,1URX,intra,QDS,A-Q265 A-D270 A-S105
1.9101,4ASM,intra,HDS,B-H179 B-D144 B-S181
1.9108,3LW5,intra,QDS,A-Q660 A-D655 A-S622
1.9108,1G7M,intra,HDS,B-H86 B-D89 B-S116
1.9109,1BFS,intra,QDS,A-Q279 A-D276 A-S299
1.9110,1IR2,inter,QDS,O-Q115 O-D111 F-S181
1.9117,2VW8,intra,QDS,A-Q9 A-D11 A-S5
1.9119,3L0G,intra,QDS,A-Q198 A-D194 A-S197
1.9119,4FTX,intra,HDS,A-H91 A-D83 A-S92
1.9126,1TM7,intra,QDS,E-Q2 E-D41 E-S78
1.9127,1UEA,intra,QDS,A-Q236 A-D238 A-S244
1.9132,3W6B,inter,HDS,B-H183 D-D156 D-S184
1.9136,3MMK,intra,HDS,A-H51 A-D39 A-S52
1.9145,2X3L,intra,HDS,B-H184 B-D181 B-S196
1.9153,1IR2,inter,QDS,P-Q115 P-D111 G-S181
1.9154,3L0G,intra,QDS,A-Q198 A-D164 A-S172
1.9161,4I1X,intra,HDS,A-H38 A-D297 A-S268
1.9162,4NM6,intra,QDS,A-Q1435 A-D1427 A-S1441
1.9164,1Y02,intra,HDS,A-H91 A-D86 A-S94
1.9171,3LW5,intra,HDS,F-H156 F-D78 F-S151
1.9179,3MMK,intra,HDS,B-H51 B-D39 B-S52
1.9179,2ZKO,intra,QDS,A-Q40 A-D12 A-S42
1.9192,3LW5,intra,HDS,A-H463 A-D475 A-S468
1.9195,3ZRW,intra,QDS,A-Q328 A-D331 A-S325
1.9198,1CNT,intra,HDS,4-H12 4-D15 4-S180
1.9202,1G7M,intra,HDS,B-H86 B-D88 B-S116
1.9208,1IR2,inter,QDS,7-Q115 7-D111 X-S181
1.9210,1Q8M,intra,QDS,D-Q52 D-D89 D-S51
1.9221,1URX,intra,QDS,A-Q245 A-D142 A-S147
1.9230,3W6B,inter,QDS,D-Q189 D-D188 B-S185
1.9240,1U2Z,intra,QDS,A-Q357 A-D429 A-S353
1.9241,1UEA,intra,HDS,C-H179 C-D182 C-S145
1.9241,1AK0,intra,HDS,A-H60 A-D120 A-S56
1.9241,4ASM,intra,QDS,B-Q195 B-D193 B-S181
1.9242,1IR2,inter,QDS,N-Q115 N-D111 E-S181
1.9252,2X3L,intra,HDS,A-H26 A-D338 A-S20
1.9254,2ZE6,intra,QDS,A-Q36 A-D62 A-S99
1.9261,1Q8M,intra,HDS,B-H93 B-D92 B-S77
1.9261,1IR2,inter,QDS,6-Q115 6-D111 W-S181
1.9262,1SU0,intra,HDS,B-H22 B-D77 B-S71
1.9268,3C75,intra,QDS,J-Q379 J-D83 J-S426
1.9271,4FTX,intra,QDS,B-Q90 B-D83 B-S92
1.9274,4MI2,intra,HDS,A-H249 A-D248 A-S250
1.9285,2XMR,intra,QDS,B-Q250 B-D255 B-S189
1.9294,4I1X,inter,QDS,B-Q106 A-D297 A-S301
1.9296,4FTX,inter,QDS,B-Q90 B-D83 A-S94
1.9299,1Y02,intra,HDS,A-H91 A-D40 A-S89
1.9305,1IR2,inter,QDS,3-Q115 3-D111 V-S181
1.9306,1Q8M,inter,QDS,A-Q35 A-D38 C-S77
1.9312,1IR2,inter,QDS,J-Q115 J-D111 C-S181
1.9316,1SU0,intra,HDS,B-H22 B-D16 B-S73
1.9326,4MI2,inter,QDS,B-Q241 C-D149 B-S238
1.9329,3LW5,intra,HDS,A-H615 A-D538 A-S646
1.9338,3W6B,inter,QDS,B-Q189 B-D188 D-S185
1.9344,1IR2,inter,QDS,1-Q115 1-D111 T-S181
1.9344,1UEA,intra,QDS,C-Q236 C-D238 C-S212
1.9347,1SU0,intra,HDS,B-H17 B-D77 B-S71
1.9348,1FP3,intra,QDS,A-Q244 A-D299 A-S283
1.9349,2X3L,intra,HDS,A-H184 A-D181 A-S196
1.9349,1IR2,inter,QDS,5-Q115 5-D111 Z-S181
1.9370,3C75,intra,QDS,H-Q379 H-D83 H-S426
1.9384,2X3L,intra,HDS,B-H184 B-D292 B-S196
1.9391,2X3L,intra,HDS,B-H33 B-D338 B-S35
1.9394,2ZE6,intra,HDS,A-H214 A-D173 A-S217
1.9415,1IR2,inter,QDS,J-Q115 B-D160 C-S181
1.9420,2WWF,intra,QDS,A-Q143 A-D147 A-S19
1.9420,3S4E,intra,HDS,A-H82 A-D83 A-S-1
1.9421,4MI2,intra,HDS,C-H249 C-D248 C-S250
1.9431,1IR2,inter,QDS,M-Q115 M-D111 H-S181
1.9439,1SU0,intra,HDS,B-H17 B-D16 B-S18
1.9442,2VW8,intra,QDS,A-Q296 A-D197 A-S294
1.9453,1UEA,intra,HDS,A-H151 A-D181 A-S145
1.9453,4FTX,inter,HDS,B-H23 B-D21 A-S24
1.9460,4NBO,inter,QDS,A-Q120 B-D174 A-S169
1.9464,2X3L,intra,QDS,A-Q201 A-D203 A-S196
1.9472,1IR2,inter,QDS,2-Q115 T-D160 U-S181
1.9473,4MI2,inter,QDS,C-Q241 A-D149 C-S238
1.9473,2VW8,intra,HDS,A-H71 A-D73 A-S160
1.9473,1IR2,inter,QDS,8-Q115 8-D111 Y-S181
1.9474,4MI2,intra,HDS,B-H249 B-D248 B-S250
1.9483,1IR2,inter,QDS,M-Q115 E-D160 H-S181
1.9484,1IR2,inter,QDS,K-Q115 C-D160 D-S181
1.9484,2R5W,intra,QDS,B-Q334 B-D331 B-S287
1.9489,1IR2,inter,QDS,4-Q115 4-D111 S-S181
1.9489,1TM7,intra,HDS,E-H64 E-D32 E-S101
1.9492,1IR2,inter,QDS,K-Q115 K-D111 D-S181
1.9494,3DTG,intra,QDS,A-Q54 A-D43 A-S122
1.9494,1FP3,intra,QDS,B-Q244 B-D299 B-S283
1.9495,4ASM,intra,QDS,B-Q326 B-D322 B-S139
1.9497,1IR2,inter,QDS,5-Q115 W-D160 Z-S181
1.9500,1UEA,intra,QDS,D-Q160 D-D149 D-S161
1.9507,2X3L,intra,HDS,A-H336 A-D338 A-S266
1.9512,1IR2,inter,QDS,G-Q156 F-D216 F-S181
1.9513,3W6B,inter,QDS,A-Q172 C-D146 A-S174
1.9514,1IR2,inter,QDS,8-Q115 Z-D160 Y-S181
1.9522,3AR4,intra,QDS,A-Q692 A-D695 A-S693
1.9524,1IR2,inter,QDS,I-Q115 I-D111 B-S181
1.9524,2XMR,intra,QDS,B-Q280 B-D56 B-S63
1.9527,1UWC,intra,HDS,A-H191 A-D194 A-S192
1.9530,4NBO,intra,HDS,A-H180 A-D178 A-S182
1.9531,4NBO,intra,HDS,B-H180 B-D178 B-S182
1.9531,2HPW,intra,QDS,A-Q106 A-D108 A-S66
1.9534,1TM7,intra,HDS,E-H39 E-D41 E-S38
1.9537,2YC1,inter,QDS,B-Q222 B-D182 A-S103
1.9541,1URX,intra,QDS,A-Q245 A-D143 A-S147
1.9542,4FTX,intra,HDS,B-H91 B-D83 B-S92
1.9550,1IR2,inter,QDS,P-Q115 H-D160 G-S181
1.9556,3DTG,intra,QDS,A-Q125 A-D130 A-S122
1.9559,1URX,intra,HDS,A-H172 A-D181 A-S147
1.9560,2YC1,inter,QDS,E-Q222 E-D182 D-S103
1.9565,2YC1,inter,QDS,A-Q82 D-D57 D-S71
1.9569,2X3L,intra,QDS,B-Q117 B-D98 B-S93
1.9574,1IR2,inter,QDS,I-Q115 A-D160 B-S181
1.9579,1IR2,inter,QDS,7-Q115 Y-D160 X-S181
1.9588,1AK0,intra,HDS,A-H60 A-D120 A-S42
1.9591,1IR2,inter,QDS,C-Q156 D-D216 D-S181
1.9592,2X3L,intra,HDS,A-H184 A-D292 A-S196
1.9592,1IR2,inter,QDS,H-Q156 G-D216 G-S181
1.9602,2WWF,intra,QDS,C-Q159 C-D17 C-S103
1.9602,4EPS,intra,QDS,A-Q437 A-D438 A-S417
1.9611,1IR2,inter,QDS,6-Q115 X-D160 W-S181
1.9613,1IR2,inter,QDS,3-Q115 U-D160 V-S181
1.9615,2X3L,intra,HDS,A-H33 A-D338 A-S35
1.9615,1IR2,inter,QDS,1-Q115 S-D160 T-S181
1.9622,1GXM,intra,QDS,A-Q435 A-D389 A-S426
1.9623,1UEA,intra,QDS,A-Q236 A-D238 A-S212
1.9633,4MI2,inter,QDS,A-Q241 B-D149 A-S238
1.9633,1IR2,inter,QDS,4-Q115 V-D160 S-S181
1.9640,1UEA,inter,QDS,B-Q150 B-D149 A-S225
1.9641,1IR2,inter,QDS,T-Q156 U-D216 U-S181
1.9642,3O8S,intra,QDS,A-Q78 A-D80 A-S171
1.9643,1IR2,inter,QDS,V-Q156 S-D216 S-S181
1.9643,2YC1,inter,QDS,D-Q82 A-D57 A-S71
1.9647,1IR2,inter,QDS,L-Q115 D-D160 A-S181
1.9647,2ICT,intra,QDS,A-Q14 A-D11 A-S39
1.9648,3S4E,intra,HDS,A-H82 A-D85 A-S-1
1.9649,1GXM,intra,QDS,B-Q435 B-D389 B-S426
1.9649,1IR2,inter,QDS,N-Q115 F-D160 E-S181
1.9653,2DR3,intra,HDS,D-H108 D-D109 D-S99
1.9653,1IR2,inter,QDS,2-Q115 2-D111 U-S181
1.9655,1URX,intra,QDS,A-Q131 A-D130 A-S272
1.9655,3LW5,intra,HDS,A-H67 A-D65 A-S41
1.9656,1IR2,inter,QDS,O-Q115 G-D160 F-S181
1.9668,3AR4,intra,QDS,A-Q920 A-D981 A-S915
1.9673,3C75,intra,QDS,H-Q329 H-D380 H-S330
1.9682,3AR4,intra,QDS,A-Q259 A-D254 A-S261
1.9693,1SU0,intra,QDS,B-Q26 B-D28 B-S45
1.9698,1IR2,inter,QDS,F-Q156 E-D216 E-S181
1.9701,2X3L,intra,HDS,B-H111 B-D114 B-S108
1.9702,1CNT,intra,QDS,4-Q122 4-D15 4-S20
1.9704,2X3L,intra,HDS,B-H336 B-D338 B-S266
1.9707,1IR2,inter,QDS,Y-Q156 X-D216 X-S181
1.9707,1IR2,inter,QDS,A-Q156 B-D216 B-S181
1.9715,1JTD,intra,HDS,A-H112 A-D115 A-S98
1.9718,2XMR,intra,QDS,A-Q280 A-D56 A-S63
1.9724,1CNT,intra,HDS,2-H174 2-D175 2-S181
1.9728,3LW5,intra,QDS,4-Q174 4-D169 4-S176
1.9730,1GXM,intra,QDS,A-Q435 A-D451 A-S444
1.9741,3C75,intra,QDS,J-Q329 J-D380 J-S330
1.9745,1IR2,inter,QDS,W-Q156 Z-D216 Z-S181
1.9750,3DTG,intra,QDS,B-Q54 B-D43 B-S122
1.9750,1IR2,inter,QDS,D-Q156 A-D216 A-S181
1.9751,2F6K,intra,HDS,B-H7 B-D5 B-S265
1.9755,1JTD,intra,HDS,B-H231 B-D245 B-S266
1.9755,1UEA,intra,HDS,C-H151 C-D182 C-S145
1.9759,2F6K,intra,HDS,A-H7 A-D5 A-S265
1.9770,1TM7,intra,QDS,E-Q2 E-D41 E-S3
1.9771,2X3L,intra,QDS,B-Q201 B-D203 B-S196
1.9772,1IR2,inter,QDS,Z-Q156 Y-D216 Y-S181
1.9775,1GJW,intra,HDS,A-H192 A-D64 A-S70
1.9776,2R5W,intra,QDS,B-Q296 B-D214 B-S299
1.9777,1IR2,inter,QDS,B-Q156 C-D216 C-S181
1.9782,1IR2,inter,QDS,S-Q156 T-D216 T-S181
1.9785,2F6K,intra,QDS,B-Q90 B-D5 B-S50
1.9788,3FN2,intra,QDS,B-Q107 B-D130 B-S105
1.9797,1TM7,intra,HDS,E-H64 E-D60 E-S125
1.9802,1UWC,intra,QDS,A-Q121 A-D124 A-S120
1.9810,1Q8M,intra,HDS,D-H91 D-D89 D-S74
1.9816,3DTG,intra,QDS,B-Q125 B-D130 B-S122
1.9819,2XMR,intra,QDS,C-Q280 C-D56 C-S63
1.9819,2X3L,intra,HDS,B-H26 B-D338 B-S20
1.9823,1UEA,inter,HDS,C-H205 C-D177 D-S68
1.9837,1GJW,intra,HDS,A-H192 A-D64 A-S60
1.9837,2AFR,intra,HDS,A-H58 A-D63 A-S190
1.9844,1IR2,inter,QDS,U-Q156 V-D216 V-S181
1.9849,3LW5,inter,QDS,L-Q58 L-D63 D-S86
1.9852,3LW5,intra,QDS,A-Q660 A-D655 A-S662
1.9854,3QSI,inter,HDS,D-H88 C-D103 D-S90
1.9866,1CNT,inter,HDS,3-H174 3-D175 1-S65
1.9867,3W6B,intra,HDS,C-H183 C-D156 C-S185
1.9879,1U2Z,intra,QDS,A-Q516 A-D560 A-S565
1.9898,3A4C,intra,QDS,A-Q499 A-D496 A-S503
1.9899,1BOB,intra,QDS,A-Q219 A-D256 A-S157
1.9902,1UEA,intra,QDS,B-Q150 B-D149 B-S134
1.9902,3C75,intra,QDS,J-Q417 J-D91 J-S374
1.9902,1IR2,inter,QDS,X-Q156 W-D216 W-S181
1.9907,1SU0,intra,HDS,B-H17 B-D77 B-S72
1.9912,1UEA,intra,QDS,C-Q243 C-D238 C-S244
1.9914,1JTD,intra,QDS,A-Q276 A-D38 A-S266
1.9918,1Y02,intra,HDS,A-H91 A-D92 A-S89
1.9920,1G7M,intra,QDS,B-Q77 B-D72 B-S76
1.9921,3L23,intra,QDS,A-Q316 A-D322 A-S52
1.9928,3LW5,intra,HDS,A-H67 A-D63 A-S41
1.9929,3C75,intra,QDS,H-Q417 H-D91 H-S374
1.9932,1UEA,intra,QDS,B-Q160 B-D149 B-S161
1.9934,2QEU,intra,HDS,C-H16 C-D43 C-S9
1.9936,2XMR,intra,HDS,A-H145 A-D147 A-S124
1.9945,3C5T,intra,QDS,B-Q13 B-D9 B-S11
1.9947,3LW5,intra,QDS,4-Q168 4-D169 4-S165
1.9948,2F6K,intra,QDS,A-Q90 A-D5 A-S50
1.9949,3AR4,intra,QDS,A-Q920 A-D981 A-S917
1.9954,3ZRW,intra,HDS,D-H342 D-D343 D-S341
1.9964,2XMR,intra,HDS,B-H145 B-D147 B-S124
1.9965,2ICT,intra,QDS,A-Q14 A-D18 A-S16
1.9966,1IR2,inter,QDS,E-Q156 H-D216 H-S181
1.9968,3UHM,intra,HDS,A-H78 A-D241 A-S81
1.9973,3W6B,intra,HDS,B-H183 B-D156 B-S185
1.9978,1TM7,intra,HDS,E-H67 E-D32 E-S63
1.9981,4F3Q,intra,QDS,A-Q216 A-D210 A-S93
1.9985,1JTD,intra,QDS,A-Q39 A-D35 A-S266
1.9988,3C75,intra,QDS,L-Q68 L-D66 L-S131
1.9993,1TM7,intra,HDS,E-H64 E-D32 E-S207
1.9998,2X3L,intra,HDS,B-H106 B-D181 B-S208
2.0000,1SU0,intra,HDS,B-H22 B-D16 B-S71
2.0000,3C75,intra,QDS,M-Q68 M-D66 M-S131
