1A9M
1AK0
1AVF
1B1B
1BFS
1BOB
1CNT
1F9I
1FP3
1G7M
1GD0
1GF5
1GJW
1GXM
1IR2
1JTD
1LNX
1PAQ
1PKS
1Q8M
1SU0
1TM7
1U2Z
1UEA
1URX
1UWC
1V7L
1WJ2
1WLF
1X43
1Y02
1Y9K
1YR1
1YZM
1ZUB
2AAO
2AFR
2BBX
2D49
2DR3
2EN3
2EQ3
2F6K
2GMK
2HPW
2HY7
2ICT
2JTU
2JVX
2QCI
2QEU
2R5W
2VW8
2W4D
2WWF
2WX0
2X3L
2XMR
2XSF
2YC1
2ZE6
2ZKO
3A4C
3AR4
3AXC
3C5T
3C75
3DLO
3DTG
3E1R
3ED0
3FN2
3IGM
3KOT
3L0G
3L23
3L27
3LW5
3MMK
3MX7
3O8S
3Q20
3QSI
3S4E
3T47
3UHM
3V67
3W6B
3ZRW
4ASM
4EPS
4F3Q
4FQO
4FTX
4HP3
4I1X
4IX1
4MI2
4NBO
4NM6
