RMSD,PDB-ID,occ,seq,motif
1.3005,MODBASE-MODEL_3711E58E166904F0B41D491840AF2BF5.PDB,intra,HC,-H798 -C709
1.4329,MODBASE-MODEL_3711E58E166904F0B41D491840AF2BF5.PDB,intra,HC,-H768 -C728
1.6780,MODBASE-MODEL_3711E58E166904F0B41D491840AF2BF5.PDB,intra,HC,-H714 -C728
